^C:\ISEP\EDOM\EDOM-18-19-ATB-73\PROJECT-RESEARCH-TOPIC\REQUIREMENTS\DSLPACKAGE\SOURCE.EXTENSION.TT
C:\ISEP\EDOM\EDOM-18-19-ATB-73\PROJECT-RESEARCH-TOPIC\REQUIREMENTS\DSL\DSLDEFINITION.DSL
C:\WINDOWS\ASSEMBLY\PUBPOL340.DAT
C:\WINDOWS\ASSEMBLY\NATIVEIMAGES_V4.0.30319_32\MICROSOFT.V534D04B4#\332FFFF9B0703F91EBB6BE7EBE6EB023\MICROSOFT.VISUALSTUDIO.TEXTTEMPLATING.INTERFACES.10.0.NI.DLL.AUX
C:\WINDOWS\MICROSOFT.NET\ASSEMBLY\GAC_MSIL\MICROSOFT.VISUALSTUDIO.TEXTTEMPLATING.INTERFACES.10.0\V4.0_10.0.0.0__B03F5F7F11D50A3A\MICROSOFT.VISUALSTUDIO.TEXTTEMPLATING.INTERFACES.10.0.DLL
C:\WINDOWS\ASSEMBLY\NATIVEIMAGES_V4.0.30319_32\SYSTEM\B8541DCCDBB1FF9CC618D7F209EE51D8\SYSTEM.NI.DLL.AUX
C:\WINDOWS\MICROSOFT.NET\ASSEMBLY\GAC_MSIL\SYSTEM\V4.0_4.0.0.0__B77A5C561934E089\SYSTEM.DLL
C:\WINDOWS\MICROSOFT.NET\ASSEMBLY\GAC_MSIL\SYSTEM.XML\V4.0_4.0.0.0__B77A5C561934E089\SYSTEM.XML.DLL
C:\WINDOWS\ASSEMBLY\NATIVEIMAGES_V4.0.30319_32\MICROSOFT.V534D1135#\CDC396DCB6D58D4F3C46BE3A4A891BDF\MICROSOFT.VISUALSTUDIO.TEXTTEMPLATING.INTERFACES.11.0.NI.DLL.AUX
C:\WINDOWS\MICROSOFT.NET\ASSEMBLY\GAC_MSIL\MICROSOFT.VISUALSTUDIO.TEXTTEMPLATING.INTERFACES.11.0\V4.0_11.0.0.0__B03F5F7F11D50A3A\MICROSOFT.VISUALSTUDIO.TEXTTEMPLATING.INTERFACES.11.0.DLL
C:\WINDOWS\ASSEMBLY\NATIVEIMAGES_V4.0.30319_32\SYSTEM.CORE\3DC315E0363898660DEA66226D357DEE\SYSTEM.CORE.NI.DLL.AUX
C:\WINDOWS\MICROSOFT.NET\ASSEMBLY\GAC_MSIL\SYSTEM.CORE\V4.0_4.0.0.0__B77A5C561934E089\SYSTEM.CORE.DLL
C:\WINDOWS\MICROSOFT.NET\ASSEMBLY\GAC_MSIL\SYSTEM.NUMERICS\V4.0_4.0.0.0__B77A5C561934E089\SYSTEM.NUMERICS.DLL
C:\PROGRAM FILES (X86)\MICROSOFT VISUAL STUDIO\2017\PROFESSIONAL\COMMON7\IDE\PUBLICASSEMBLIES\MICROSOFT.VISUALSTUDIO.TEXTTEMPLATING.MODELING.15.0.DLL
C:\WINDOWS\ASSEMBLY\NATIVEIMAGES_V4.0.30319_32\WINDOWSBASE\6D7ACFC0EB7AD482D67A41C7939EC783\WINDOWSBASE.NI.DLL.AUX
C:\WINDOWS\MICROSOFT.NET\ASSEMBLY\GAC_MSIL\WINDOWSBASE\V4.0_4.0.0.0__31BF3856AD364E35\WINDOWSBASE.DLL
C:\PROGRAM FILES (X86)\MICROSOFT VISUAL STUDIO\2017\PROFESSIONAL\MSBUILD\15.0\BIN\ROSLYN\MICROSOFT.CODEANALYSIS.DLL
C:\WINDOWS\ASSEMBLY\NATIVEIMAGES_V4.0.30319_32\SYSTEM.RUNTIME\A86EC2266C936529D28E76CCC27B1293\SYSTEM.RUNTIME.NI.DLL.AUX
C:\WINDOWS\MICROSOFT.NET\ASSEMBLY\GAC_MSIL\SYSTEM.RUNTIME\V4.0_4.0.0.0__B03F5F7F11D50A3A\SYSTEM.RUNTIME.DLL
C:\WINDOWS\ASSEMBLY\NATIVEIMAGES_V4.0.30319_32\SYSTEM.COLL4A4F96A7#\45B54FF7A9D7BA96D297F35777EE86F4\SYSTEM.COLLECTIONS.IMMUTABLE.NI.DLL.AUX
C:\WINDOWS\ASSEMBLY\NATIVEIMAGES_V4.0.30319_32\SYSTEM.COLL4A4F96A7#\E318372E7BA46AB60FBFB1739878C673\SYSTEM.COLLECTIONS.IMMUTABLE.NI.DLL.AUX
C:\PROGRAM FILES (X86)\MICROSOFT VISUAL STUDIO\2017\PROFESSIONAL\MSBUILD\15.0\BIN\SYSTEM.COLLECTIONS.IMMUTABLE.DLL
C:\WINDOWS\ASSEMBLY\NATIVEIMAGES_V4.0.30319_32\SYSTEM.THRE7BB2AAD0#\98733A5EA2EF9DB8DA9A944384230421\SYSTEM.THREADING.TASKS.NI.DLL.AUX
C:\WINDOWS\MICROSOFT.NET\ASSEMBLY\GAC_MSIL\SYSTEM.THREADING.TASKS\V4.0_4.0.0.0__B03F5F7F11D50A3A\SYSTEM.THREADING.TASKS.DLL
C:\WINDOWS\ASSEMBLY\NATIVEIMAGES_V4.0.30319_32\SYSTEM.IO\EE1A9525BCD4ECB65F0805A18FF6CCA5\SYSTEM.IO.NI.DLL.AUX
C:\WINDOWS\ASSEMBLY\NATIVEIMAGES_V4.0.30319_32\SYSTEM.IO.FILESYSTEM\BA213D2469E3E53B3F5219DB0CF63B67\SYSTEM.IO.FILESYSTEM.NI.DLL.AUX
C:\WINDOWS\MICROSOFT.NET\ASSEMBLY\GAC_MSIL\SYSTEM.IO.FILESYSTEM\V4.0_4.0.0.0__B03F5F7F11D50A3A\SYSTEM.IO.FILESYSTEM.DLL
C:\PROGRAM FILES (X86)\MICROSOFT VISUAL STUDIO\2017\PROFESSIONAL\MSBUILD\15.0\BIN\ROSLYN\SYSTEM.REFLECTION.METADATA.DLL
C:\WINDOWS\ASSEMBLY\NATIVEIMAGES_V4.0.30319_32\SYSTEM.COLLECTIONS\3780800F2294FBA3D80335346E2B8CBA\SYSTEM.COLLECTIONS.NI.DLL.AUX
C:\WINDOWS\ASSEMBLY\NATIVEIMAGES_V4.0.30319_32\SYSTEM.RUNT1E58AA76#\B5576012516C6CFA61E79AE440CEEA93\SYSTEM.RUNTIME.EXTENSIONS.NI.DLL.AUX
C:\WINDOWS\ASSEMBLY\NATIVEIMAGES_V4.0.30319_32\SYSTEM.LINQ\5736DA55B79B0EF5CB4BCC869ACC046A\SYSTEM.LINQ.NI.DLL.AUX
C:\PROGRAM FILES (X86)\MICROSOFT VISUAL STUDIO\2017\PROFESSIONAL\MSBUILD\15.0\BIN\ROSLYN\MICROSOFT.CODEANALYSIS.CSHARP.DLL
C:\WINDOWS\ASSEMBLY\NATIVEIMAGES_V4.0.30319_32\SYSTEM.TEXT.ENCODING\C576464CEABEF743793AB34E82F63BEA\SYSTEM.TEXT.ENCODING.NI.DLL.AUX
C:\WINDOWS\ASSEMBLY\NATIVEIMAGES_V4.0.30319_32\SYSTEM.THREADING\FDF2C2630F808980EE02410252EDAF70\SYSTEM.THREADING.NI.DLL.AUX
C:\WINDOWS\ASSEMBLY\NATIVEIMAGES_V4.0.30319_32\SYSTEM.VALUETUPLE\493E11348FF8648EED5CF085D2CC3515\SYSTEM.VALUETUPLE.NI.DLL.AUX
C:\WINDOWS\MICROSOFT.NET\ASSEMBLY\GAC_MSIL\SYSTEM.VALUETUPLE\V4.0_4.0.0.0__CC7B13FFCD2DDD51\SYSTEM.VALUETUPLE.DLL
C:\WINDOWS\ASSEMBLY\NATIVEIMAGES_V4.0.30319_32\SYSTEM.GLOBALIZATION\1982ED187454B8FF6264A4613BB25662\SYSTEM.GLOBALIZATION.NI.DLL.AUX
C:\WINDOWS\ASSEMBLY\NATIVEIMAGES_V4.0.30319_32\SYSTEM.SECU37D0045C#\FFB54285F8C16A07501F9986C7F2E487\SYSTEM.SECURITY.CRYPTOGRAPHY.PRIMITIVES.NI.DLL.AUX
C:\WINDOWS\MICROSOFT.NET\ASSEMBLY\GAC_MSIL\SYSTEM.SECURITY.CRYPTOGRAPHY.PRIMITIVES\V4.0_4.0.0.0__B03F5F7F11D50A3A\SYSTEM.SECURITY.CRYPTOGRAPHY.PRIMITIVES.DLL
C:\WINDOWS\ASSEMBLY\NATIVEIMAGES_V4.0.30319_32\SYSTEM.SECUAE55D472#\E60703747BEFB0F0B560CF905496CD62\SYSTEM.SECURITY.CRYPTOGRAPHY.ALGORITHMS.NI.DLL.AUX
C:\WINDOWS\MICROSOFT.NET\ASSEMBLY\GAC_MSIL\SYSTEM.SECURITY.CRYPTOGRAPHY.ALGORITHMS\V4.0_4.0.0.0__B03F5F7F11D50A3A\SYSTEM.SECURITY.CRYPTOGRAPHY.ALGORITHMS.DLL
C:\WINDOWS\ASSEMBLY\NATIVEIMAGES_V4.0.30319_32\SYSTEM.THRE66CF2015#\23CB9676D51255A6B16AAD55F971C7FA\SYSTEM.THREADING.TASKS.PARALLEL.NI.DLL.AUX
C:\WINDOWS\ASSEMBLY\NATIVEIMAGES_V4.0.30319_32\SYSTEM.REFL588A0515#\1E4437BC8237044EC73883AC32A33CB4\SYSTEM.REFLECTION.PRIMITIVES.NI.DLL.AUX
C:\WINDOWS\ASSEMBLY\NATIVEIMAGES_V4.0.30319_32\SYSTEM.RUNT9E372C89#\E20D63F3FCCEF6DFD943C9E3031FFEFA\SYSTEM.RUNTIME.INTEROPSERVICES.NI.DLL.AUX
C:\WINDOWS\ASSEMBLY\NATIVEIMAGES_V4.0.30319_32\SYSTEM.REFLECTION\64D3C1D238A73BA4B298ABFADCB64F54\SYSTEM.REFLECTION.NI.DLL.AUX
C:\WINDOWS\MICROSOFT.NET\FRAMEWORK\V4.0.30319\MSCORLIB.DLL
C:\PROGRAM FILES (X86)\MICROSOFT VISUAL STUDIO\2017\PROFESSIONAL\COMMON7\IDE\EXTENSIONS\MICROSOFT\DSL SDK\DSL DESIGNER\15.0\MICROSOFT.VISUALSTUDIO.MODELING.SDK.DSLDEFINITION.15.0.DLL
C:\PROGRAM FILES (X86)\MICROSOFT VISUAL STUDIO\2017\PROFESSIONAL\COMMON7\IDE\PRIVATEASSEMBLIES\MICROSOFT.VISUALSTUDIO.MODELING.SDK.DIAGRAMS.15.0.DLL
C:\PROGRAM FILES (X86)\MICROSOFT VISUAL STUDIO\2017\PROFESSIONAL\COMMON7\IDE\PRIVATEASSEMBLIES\MICROSOFT.VISUALSTUDIO.MODELING.SDK.15.0.DLL
C:\PROGRAM FILES (X86)\MICROSOFT VISUAL STUDIO\2017\PROFESSIONAL\MSBUILD\MICROSOFT\VISUALSTUDIO\V15.0\TEXTTEMPLATING\MICROSOFT.VISUALSTUDIO.TEXTTEMPLATING.SDK.HOST.15.0.DLL
C:\PROGRAM FILES (X86)\MICROSOFT VISUAL STUDIO\2017\PROFESSIONAL\MSBUILD\MICROSOFT\VISUALSTUDIO\V15.0\TEXTTEMPLATING\MICROSOFT.VISUALSTUDIO.TEXTTEMPLATING.15.0.DLL
C:\WINDOWS\ASSEMBLY\NATIVEIMAGES_V4.0.30319_32\SYSTEM.COLLDFB0B5AE#\7BF78D457237061AB0A268489345FE95\SYSTEM.COLLECTIONS.CONCURRENT.NI.DLL.AUX
C:\WINDOWS\MICROSOFT.NET\ASSEMBLY\GAC_MSIL\SYSTEM.COLLECTIONS.CONCURRENT\V4.0_4.0.0.0__B03F5F7F11D50A3A\SYSTEM.COLLECTIONS.CONCURRENT.DLL
C:\WINDOWS\ASSEMBLY\NATIVEIMAGES_V4.0.30319_32\SYSTEM.TEXT6774AA7A#\4E648C4D0460CE0992B192625079E339\SYSTEM.TEXT.ENCODING.EXTENSIONS.NI.DLL.AUX
C:\WINDOWS\ASSEMBLY\NATIVEIMAGES_V4.0.30319_32\SYSTEM.REFL9C203D4D#\60C59451BD5C23D9BAEAF3FED21CE209\SYSTEM.REFLECTION.EXTENSIONS.NI.DLL.AUX
C:\WINDOWS\MICROSOFT.NET\FRAMEWORK\V4.0.30319\CONFIG\MACHINE.CONFIG
C:\PROGRAM FILES (X86)\MICROSOFT VISUAL STUDIO\2017\PROFESSIONAL\MSBUILD\15.0\BIN\MSBUILD.EXE.CONFIG
C:\WINDOWS\ASSEMBLY\NATIVEIMAGES_V4.0.30319_32\SYSTEM.XML.XDOCUMENT\3A6529E55717CD46BC5FE268EA7A8B23\SYSTEM.XML.XDOCUMENT.NI.DLL.AUX
C:\WINDOWS\ASSEMBLY\NATIVEIMAGES_V4.0.30319_32\SYSTEM.XML.LINQ\94B734878D62B0B51BF7E23AA3D5493A\SYSTEM.XML.LINQ.NI.DLL.AUX
C:\WINDOWS\MICROSOFT.NET\ASSEMBLY\GAC_MSIL\SYSTEM.XML.LINQ\V4.0_4.0.0.0__B77A5C561934E089\SYSTEM.XML.LINQ.DLL
C:\WINDOWS\ASSEMBLY\NATIVEIMAGES_V4.0.30319_32\SYSTEM.XML\2144FC6B632BAF232EC093A991F86A97\SYSTEM.XML.NI.DLL.AUX
C:\WINDOWS\ASSEMBLY\NATIVEIMAGES_V4.0.30319_32\SYSTEM.XML.DD7E8ED3#\05CA2A04B757E300940B18BF2770EF60\SYSTEM.XML.READERWRITER.NI.DLL.AUX
C:\WINDOWS\ASSEMBLY\NATIVEIMAGES_V4.0.30319_32\SYSTEM.XML.DD7E8ED3#\65128B952255764C78EBC1ED2CAAA848\SYSTEM.XML.READERWRITER.NI.DLL.AUX
C:\WINDOWS\ASSEMBLY\NATIVEIMAGES_V4.0.30319_32\MICROSOFT.CSHARP\B453EFC6AE1DB7799EB0D814AE1ABAF0\MICROSOFT.CSHARP.NI.DLL.AUX
C:\WINDOWS\MICROSOFT.NET\ASSEMBLY\GAC_MSIL\MICROSOFT.CSHARP\V4.0_4.0.0.0__B03F5F7F11D50A3A\MICROSOFT.CSHARP.DLL
C:\WINDOWS\ASSEMBLY\NATIVEIMAGES_V4.0.30319_32\SYSTEM.DYNAMIC\DFBCB1E940CBC9D9EB84A60DD651D087\SYSTEM.DYNAMIC.NI.DLL.AUX
C:\WINDOWS\MICROSOFT.NET\ASSEMBLY\GAC_MSIL\SYSTEM.DYNAMIC\V4.0_4.0.0.0__B03F5F7F11D50A3A\SYSTEM.DYNAMIC.DLL
C:\WINDOWS\ASSEMBLY\NATIVEIMAGES_V4.0.30319_32\SYSTEM.DRAWING\03E4779097350B509D7636F7A9B75321\SYSTEM.DRAWING.NI.DLL.AUX
C:\WINDOWS\MICROSOFT.NET\ASSEMBLY\GAC_MSIL\SYSTEM.DRAWING\V4.0_4.0.0.0__B03F5F7F11D50A3A\SYSTEM.DRAWING.DLL
C:\WINDOWS\ASSEMBLY\NATIVEIMAGES_V4.0.30319_32\SYSTEM.WINDOWS.FORMS\45B72697EC5784C1341539ECB6DE9B1A\SYSTEM.WINDOWS.FORMS.NI.DLL.AUX
C:\WINDOWS\MICROSOFT.NET\ASSEMBLY\GAC_MSIL\SYSTEM.WINDOWS.FORMS\V4.0_4.0.0.0__B77A5C561934E089\SYSTEM.WINDOWS.FORMS.DLL
C:\WINDOWS\REGISTRATION\R000000000001.CLB
C:\WINDOWS\ASSEMBLY\NATIVEIMAGES_V4.0.30319_32\SYSTEM.COMPBA577418#\05BACB03B71D66FACD27DA668175B8AD\SYSTEM.COMPONENTMODEL.COMPOSITION.NI.DLL.AUX
C:\WINDOWS\MICROSOFT.NET\ASSEMBLY\GAC_MSIL\SYSTEM.COMPONENTMODEL.COMPOSITION\V4.0_4.0.0.0__B77A5C561934E089\SYSTEM.COMPONENTMODEL.COMPOSITION.DLL
^C:\ISEP\EDOM\EDOM-18-19-ATB-73\PROJECT-RESEARCH-TOPIC\REQUIREMENTS\DSLPACKAGE\GENERATEDCODE\CONSTANTS.TT
C:\PROGRAM FILES (X86)\MICROSOFT VISUAL STUDIO\2017\PROFESSIONAL\COMMON7\IDE\EXTENSIONS\MICROSOFT\DSL SDK\DSL DESIGNER\15.0\TEXTTEMPLATES\DSLPACKAGE\CONSTANTS.TT
C:\ISEP\EDOM\EDOM-18-19-ATB-73\PROJECT-RESEARCH-TOPIC\REQUIREMENTS\DSL\DSLDEFINITION.DSL
C:\WINDOWS\MICROSOFT.NET\FRAMEWORK\V4.0.30319\MSCORLIB.DLL
C:\PROGRAM FILES (X86)\MICROSOFT VISUAL STUDIO\2017\PROFESSIONAL\COMMON7\IDE\EXTENSIONS\MICROSOFT\DSL SDK\DSL DESIGNER\15.0\MICROSOFT.VISUALSTUDIO.MODELING.SDK.DSLDEFINITION.15.0.DLL
C:\PROGRAM FILES (X86)\MICROSOFT VISUAL STUDIO\2017\PROFESSIONAL\COMMON7\IDE\PRIVATEASSEMBLIES\MICROSOFT.VISUALSTUDIO.MODELING.SDK.DIAGRAMS.15.0.DLL
C:\PROGRAM FILES (X86)\MICROSOFT VISUAL STUDIO\2017\PROFESSIONAL\COMMON7\IDE\PRIVATEASSEMBLIES\MICROSOFT.VISUALSTUDIO.MODELING.SDK.15.0.DLL
C:\PROGRAM FILES (X86)\MICROSOFT VISUAL STUDIO\2017\PROFESSIONAL\COMMON7\IDE\PUBLICASSEMBLIES\MICROSOFT.VISUALSTUDIO.TEXTTEMPLATING.MODELING.15.0.DLL
C:\WINDOWS\MICROSOFT.NET\ASSEMBLY\GAC_MSIL\SYSTEM\V4.0_4.0.0.0__B77A5C561934E089\SYSTEM.DLL
C:\WINDOWS\MICROSOFT.NET\ASSEMBLY\GAC_MSIL\WINDOWSBASE\V4.0_4.0.0.0__31BF3856AD364E35\WINDOWSBASE.DLL
C:\PROGRAM FILES (X86)\MICROSOFT VISUAL STUDIO\2017\PROFESSIONAL\MSBUILD\MICROSOFT\VISUALSTUDIO\V15.0\TEXTTEMPLATING\MICROSOFT.VISUALSTUDIO.TEXTTEMPLATING.SDK.HOST.15.0.DLL
C:\PROGRAM FILES (X86)\MICROSOFT VISUAL STUDIO\2017\PROFESSIONAL\MSBUILD\MICROSOFT\VISUALSTUDIO\V15.0\TEXTTEMPLATING\MICROSOFT.VISUALSTUDIO.TEXTTEMPLATING.15.0.DLL
C:\WINDOWS\MICROSOFT.NET\ASSEMBLY\GAC_MSIL\MICROSOFT.VISUALSTUDIO.TEXTTEMPLATING.INTERFACES.10.0\V4.0_10.0.0.0__B03F5F7F11D50A3A\MICROSOFT.VISUALSTUDIO.TEXTTEMPLATING.INTERFACES.10.0.DLL
^C:\ISEP\EDOM\EDOM-18-19-ATB-73\PROJECT-RESEARCH-TOPIC\REQUIREMENTS\DSLPACKAGE\GENERATEDCODE\DOCDATA.TT
C:\PROGRAM FILES (X86)\MICROSOFT VISUAL STUDIO\2017\PROFESSIONAL\COMMON7\IDE\EXTENSIONS\MICROSOFT\DSL SDK\DSL DESIGNER\15.0\TEXTTEMPLATES\DSLPACKAGE\DOCDATA.TT
C:\ISEP\EDOM\EDOM-18-19-ATB-73\PROJECT-RESEARCH-TOPIC\REQUIREMENTS\DSL\DSLDEFINITION.DSL
C:\WINDOWS\MICROSOFT.NET\FRAMEWORK\V4.0.30319\MSCORLIB.DLL
C:\PROGRAM FILES (X86)\MICROSOFT VISUAL STUDIO\2017\PROFESSIONAL\COMMON7\IDE\EXTENSIONS\MICROSOFT\DSL SDK\DSL DESIGNER\15.0\MICROSOFT.VISUALSTUDIO.MODELING.SDK.DSLDEFINITION.15.0.DLL
C:\PROGRAM FILES (X86)\MICROSOFT VISUAL STUDIO\2017\PROFESSIONAL\COMMON7\IDE\PRIVATEASSEMBLIES\MICROSOFT.VISUALSTUDIO.MODELING.SDK.DIAGRAMS.15.0.DLL
C:\PROGRAM FILES (X86)\MICROSOFT VISUAL STUDIO\2017\PROFESSIONAL\COMMON7\IDE\PRIVATEASSEMBLIES\MICROSOFT.VISUALSTUDIO.MODELING.SDK.15.0.DLL
C:\PROGRAM FILES (X86)\MICROSOFT VISUAL STUDIO\2017\PROFESSIONAL\COMMON7\IDE\PUBLICASSEMBLIES\MICROSOFT.VISUALSTUDIO.TEXTTEMPLATING.MODELING.15.0.DLL
C:\WINDOWS\MICROSOFT.NET\ASSEMBLY\GAC_MSIL\SYSTEM\V4.0_4.0.0.0__B77A5C561934E089\SYSTEM.DLL
C:\WINDOWS\MICROSOFT.NET\ASSEMBLY\GAC_MSIL\WINDOWSBASE\V4.0_4.0.0.0__31BF3856AD364E35\WINDOWSBASE.DLL
C:\PROGRAM FILES (X86)\MICROSOFT VISUAL STUDIO\2017\PROFESSIONAL\MSBUILD\MICROSOFT\VISUALSTUDIO\V15.0\TEXTTEMPLATING\MICROSOFT.VISUALSTUDIO.TEXTTEMPLATING.SDK.HOST.15.0.DLL
C:\PROGRAM FILES (X86)\MICROSOFT VISUAL STUDIO\2017\PROFESSIONAL\MSBUILD\MICROSOFT\VISUALSTUDIO\V15.0\TEXTTEMPLATING\MICROSOFT.VISUALSTUDIO.TEXTTEMPLATING.15.0.DLL
C:\WINDOWS\MICROSOFT.NET\ASSEMBLY\GAC_MSIL\MICROSOFT.VISUALSTUDIO.TEXTTEMPLATING.INTERFACES.10.0\V4.0_10.0.0.0__B03F5F7F11D50A3A\MICROSOFT.VISUALSTUDIO.TEXTTEMPLATING.INTERFACES.10.0.DLL
^C:\ISEP\EDOM\EDOM-18-19-ATB-73\PROJECT-RESEARCH-TOPIC\REQUIREMENTS\DSLPACKAGE\GENERATEDCODE\DOCVIEW.TT
C:\PROGRAM FILES (X86)\MICROSOFT VISUAL STUDIO\2017\PROFESSIONAL\COMMON7\IDE\EXTENSIONS\MICROSOFT\DSL SDK\DSL DESIGNER\15.0\TEXTTEMPLATES\DSLPACKAGE\DOCVIEW.TT
C:\ISEP\EDOM\EDOM-18-19-ATB-73\PROJECT-RESEARCH-TOPIC\REQUIREMENTS\DSL\DSLDEFINITION.DSL
C:\WINDOWS\MICROSOFT.NET\FRAMEWORK\V4.0.30319\MSCORLIB.DLL
C:\PROGRAM FILES (X86)\MICROSOFT VISUAL STUDIO\2017\PROFESSIONAL\COMMON7\IDE\EXTENSIONS\MICROSOFT\DSL SDK\DSL DESIGNER\15.0\MICROSOFT.VISUALSTUDIO.MODELING.SDK.DSLDEFINITION.15.0.DLL
C:\PROGRAM FILES (X86)\MICROSOFT VISUAL STUDIO\2017\PROFESSIONAL\COMMON7\IDE\PRIVATEASSEMBLIES\MICROSOFT.VISUALSTUDIO.MODELING.SDK.DIAGRAMS.15.0.DLL
C:\PROGRAM FILES (X86)\MICROSOFT VISUAL STUDIO\2017\PROFESSIONAL\COMMON7\IDE\PRIVATEASSEMBLIES\MICROSOFT.VISUALSTUDIO.MODELING.SDK.15.0.DLL
C:\PROGRAM FILES (X86)\MICROSOFT VISUAL STUDIO\2017\PROFESSIONAL\COMMON7\IDE\PUBLICASSEMBLIES\MICROSOFT.VISUALSTUDIO.TEXTTEMPLATING.MODELING.15.0.DLL
C:\WINDOWS\MICROSOFT.NET\ASSEMBLY\GAC_MSIL\SYSTEM\V4.0_4.0.0.0__B77A5C561934E089\SYSTEM.DLL
C:\WINDOWS\MICROSOFT.NET\ASSEMBLY\GAC_MSIL\WINDOWSBASE\V4.0_4.0.0.0__31BF3856AD364E35\WINDOWSBASE.DLL
C:\PROGRAM FILES (X86)\MICROSOFT VISUAL STUDIO\2017\PROFESSIONAL\MSBUILD\MICROSOFT\VISUALSTUDIO\V15.0\TEXTTEMPLATING\MICROSOFT.VISUALSTUDIO.TEXTTEMPLATING.SDK.HOST.15.0.DLL
C:\PROGRAM FILES (X86)\MICROSOFT VISUAL STUDIO\2017\PROFESSIONAL\MSBUILD\MICROSOFT\VISUALSTUDIO\V15.0\TEXTTEMPLATING\MICROSOFT.VISUALSTUDIO.TEXTTEMPLATING.15.0.DLL
C:\WINDOWS\MICROSOFT.NET\ASSEMBLY\GAC_MSIL\MICROSOFT.VISUALSTUDIO.TEXTTEMPLATING.INTERFACES.10.0\V4.0_10.0.0.0__B03F5F7F11D50A3A\MICROSOFT.VISUALSTUDIO.TEXTTEMPLATING.INTERFACES.10.0.DLL
^C:\ISEP\EDOM\EDOM-18-19-ATB-73\PROJECT-RESEARCH-TOPIC\REQUIREMENTS\DSLPACKAGE\GENERATEDCODE\MODELEXPLORER.TT
C:\PROGRAM FILES (X86)\MICROSOFT VISUAL STUDIO\2017\PROFESSIONAL\COMMON7\IDE\EXTENSIONS\MICROSOFT\DSL SDK\DSL DESIGNER\15.0\TEXTTEMPLATES\DSLPACKAGE\MODELEXPLORER.TT
C:\PROGRAM FILES (X86)\MICROSOFT VISUAL STUDIO\2017\PROFESSIONAL\COMMON7\IDE\EXTENSIONS\MICROSOFT\DSL SDK\DSL DESIGNER\15.0\TEXTTEMPLATES\DSL\PATHMERGE.TT
C:\ISEP\EDOM\EDOM-18-19-ATB-73\PROJECT-RESEARCH-TOPIC\REQUIREMENTS\DSL\DSLDEFINITION.DSL
C:\WINDOWS\MICROSOFT.NET\FRAMEWORK\V4.0.30319\MSCORLIB.DLL
C:\PROGRAM FILES (X86)\MICROSOFT VISUAL STUDIO\2017\PROFESSIONAL\COMMON7\IDE\EXTENSIONS\MICROSOFT\DSL SDK\DSL DESIGNER\15.0\MICROSOFT.VISUALSTUDIO.MODELING.SDK.DSLDEFINITION.15.0.DLL
C:\PROGRAM FILES (X86)\MICROSOFT VISUAL STUDIO\2017\PROFESSIONAL\COMMON7\IDE\PRIVATEASSEMBLIES\MICROSOFT.VISUALSTUDIO.MODELING.SDK.DIAGRAMS.15.0.DLL
C:\PROGRAM FILES (X86)\MICROSOFT VISUAL STUDIO\2017\PROFESSIONAL\COMMON7\IDE\PRIVATEASSEMBLIES\MICROSOFT.VISUALSTUDIO.MODELING.SDK.15.0.DLL
C:\PROGRAM FILES (X86)\MICROSOFT VISUAL STUDIO\2017\PROFESSIONAL\COMMON7\IDE\PUBLICASSEMBLIES\MICROSOFT.VISUALSTUDIO.TEXTTEMPLATING.MODELING.15.0.DLL
C:\WINDOWS\MICROSOFT.NET\ASSEMBLY\GAC_MSIL\SYSTEM\V4.0_4.0.0.0__B77A5C561934E089\SYSTEM.DLL
C:\WINDOWS\MICROSOFT.NET\ASSEMBLY\GAC_MSIL\WINDOWSBASE\V4.0_4.0.0.0__31BF3856AD364E35\WINDOWSBASE.DLL
C:\PROGRAM FILES (X86)\MICROSOFT VISUAL STUDIO\2017\PROFESSIONAL\MSBUILD\MICROSOFT\VISUALSTUDIO\V15.0\TEXTTEMPLATING\MICROSOFT.VISUALSTUDIO.TEXTTEMPLATING.SDK.HOST.15.0.DLL
C:\PROGRAM FILES (X86)\MICROSOFT VISUAL STUDIO\2017\PROFESSIONAL\MSBUILD\MICROSOFT\VISUALSTUDIO\V15.0\TEXTTEMPLATING\MICROSOFT.VISUALSTUDIO.TEXTTEMPLATING.15.0.DLL
C:\WINDOWS\MICROSOFT.NET\ASSEMBLY\GAC_MSIL\MICROSOFT.VISUALSTUDIO.TEXTTEMPLATING.INTERFACES.10.0\V4.0_10.0.0.0__B03F5F7F11D50A3A\MICROSOFT.VISUALSTUDIO.TEXTTEMPLATING.INTERFACES.10.0.DLL
^C:\ISEP\EDOM\EDOM-18-19-ATB-73\PROJECT-RESEARCH-TOPIC\REQUIREMENTS\DSLPACKAGE\GENERATEDCODE\EDITORFACTORY.TT
C:\PROGRAM FILES (X86)\MICROSOFT VISUAL STUDIO\2017\PROFESSIONAL\COMMON7\IDE\EXTENSIONS\MICROSOFT\DSL SDK\DSL DESIGNER\15.0\TEXTTEMPLATES\DSLPACKAGE\EDITORFACTORY.TT
C:\ISEP\EDOM\EDOM-18-19-ATB-73\PROJECT-RESEARCH-TOPIC\REQUIREMENTS\DSL\DSLDEFINITION.DSL
C:\WINDOWS\MICROSOFT.NET\FRAMEWORK\V4.0.30319\MSCORLIB.DLL
C:\PROGRAM FILES (X86)\MICROSOFT VISUAL STUDIO\2017\PROFESSIONAL\COMMON7\IDE\EXTENSIONS\MICROSOFT\DSL SDK\DSL DESIGNER\15.0\MICROSOFT.VISUALSTUDIO.MODELING.SDK.DSLDEFINITION.15.0.DLL
C:\PROGRAM FILES (X86)\MICROSOFT VISUAL STUDIO\2017\PROFESSIONAL\COMMON7\IDE\PRIVATEASSEMBLIES\MICROSOFT.VISUALSTUDIO.MODELING.SDK.DIAGRAMS.15.0.DLL
C:\PROGRAM FILES (X86)\MICROSOFT VISUAL STUDIO\2017\PROFESSIONAL\COMMON7\IDE\PRIVATEASSEMBLIES\MICROSOFT.VISUALSTUDIO.MODELING.SDK.15.0.DLL
C:\PROGRAM FILES (X86)\MICROSOFT VISUAL STUDIO\2017\PROFESSIONAL\COMMON7\IDE\PUBLICASSEMBLIES\MICROSOFT.VISUALSTUDIO.TEXTTEMPLATING.MODELING.15.0.DLL
C:\WINDOWS\MICROSOFT.NET\ASSEMBLY\GAC_MSIL\SYSTEM\V4.0_4.0.0.0__B77A5C561934E089\SYSTEM.DLL
C:\WINDOWS\MICROSOFT.NET\ASSEMBLY\GAC_MSIL\WINDOWSBASE\V4.0_4.0.0.0__31BF3856AD364E35\WINDOWSBASE.DLL
C:\PROGRAM FILES (X86)\MICROSOFT VISUAL STUDIO\2017\PROFESSIONAL\MSBUILD\MICROSOFT\VISUALSTUDIO\V15.0\TEXTTEMPLATING\MICROSOFT.VISUALSTUDIO.TEXTTEMPLATING.SDK.HOST.15.0.DLL
C:\PROGRAM FILES (X86)\MICROSOFT VISUAL STUDIO\2017\PROFESSIONAL\MSBUILD\MICROSOFT\VISUALSTUDIO\V15.0\TEXTTEMPLATING\MICROSOFT.VISUALSTUDIO.TEXTTEMPLATING.15.0.DLL
C:\WINDOWS\MICROSOFT.NET\ASSEMBLY\GAC_MSIL\MICROSOFT.VISUALSTUDIO.TEXTTEMPLATING.INTERFACES.10.0\V4.0_10.0.0.0__B03F5F7F11D50A3A\MICROSOFT.VISUALSTUDIO.TEXTTEMPLATING.INTERFACES.10.0.DLL
^C:\ISEP\EDOM\EDOM-18-19-ATB-73\PROJECT-RESEARCH-TOPIC\REQUIREMENTS\DSLPACKAGE\GENERATEDCODE\MODELEXPLORERTOOLWINDOW.TT
C:\PROGRAM FILES (X86)\MICROSOFT VISUAL STUDIO\2017\PROFESSIONAL\COMMON7\IDE\EXTENSIONS\MICROSOFT\DSL SDK\DSL DESIGNER\15.0\TEXTTEMPLATES\DSLPACKAGE\MODELEXPLORERTOOLWINDOW.TT
C:\ISEP\EDOM\EDOM-18-19-ATB-73\PROJECT-RESEARCH-TOPIC\REQUIREMENTS\DSL\DSLDEFINITION.DSL
C:\WINDOWS\MICROSOFT.NET\FRAMEWORK\V4.0.30319\MSCORLIB.DLL
C:\PROGRAM FILES (X86)\MICROSOFT VISUAL STUDIO\2017\PROFESSIONAL\COMMON7\IDE\EXTENSIONS\MICROSOFT\DSL SDK\DSL DESIGNER\15.0\MICROSOFT.VISUALSTUDIO.MODELING.SDK.DSLDEFINITION.15.0.DLL
C:\PROGRAM FILES (X86)\MICROSOFT VISUAL STUDIO\2017\PROFESSIONAL\COMMON7\IDE\PRIVATEASSEMBLIES\MICROSOFT.VISUALSTUDIO.MODELING.SDK.DIAGRAMS.15.0.DLL
C:\PROGRAM FILES (X86)\MICROSOFT VISUAL STUDIO\2017\PROFESSIONAL\COMMON7\IDE\PRIVATEASSEMBLIES\MICROSOFT.VISUALSTUDIO.MODELING.SDK.15.0.DLL
C:\PROGRAM FILES (X86)\MICROSOFT VISUAL STUDIO\2017\PROFESSIONAL\COMMON7\IDE\PUBLICASSEMBLIES\MICROSOFT.VISUALSTUDIO.TEXTTEMPLATING.MODELING.15.0.DLL
C:\WINDOWS\MICROSOFT.NET\ASSEMBLY\GAC_MSIL\SYSTEM\V4.0_4.0.0.0__B77A5C561934E089\SYSTEM.DLL
C:\WINDOWS\MICROSOFT.NET\ASSEMBLY\GAC_MSIL\WINDOWSBASE\V4.0_4.0.0.0__31BF3856AD364E35\WINDOWSBASE.DLL
C:\PROGRAM FILES (X86)\MICROSOFT VISUAL STUDIO\2017\PROFESSIONAL\MSBUILD\MICROSOFT\VISUALSTUDIO\V15.0\TEXTTEMPLATING\MICROSOFT.VISUALSTUDIO.TEXTTEMPLATING.SDK.HOST.15.0.DLL
C:\PROGRAM FILES (X86)\MICROSOFT VISUAL STUDIO\2017\PROFESSIONAL\MSBUILD\MICROSOFT\VISUALSTUDIO\V15.0\TEXTTEMPLATING\MICROSOFT.VISUALSTUDIO.TEXTTEMPLATING.15.0.DLL
C:\WINDOWS\MICROSOFT.NET\ASSEMBLY\GAC_MSIL\MICROSOFT.VISUALSTUDIO.TEXTTEMPLATING.INTERFACES.10.0\V4.0_10.0.0.0__B03F5F7F11D50A3A\MICROSOFT.VISUALSTUDIO.TEXTTEMPLATING.INTERFACES.10.0.DLL
^C:\ISEP\EDOM\EDOM-18-19-ATB-73\PROJECT-RESEARCH-TOPIC\REQUIREMENTS\DSLPACKAGE\GENERATEDCODE\PACKAGE.TT
C:\PROGRAM FILES (X86)\MICROSOFT VISUAL STUDIO\2017\PROFESSIONAL\COMMON7\IDE\EXTENSIONS\MICROSOFT\DSL SDK\DSL DESIGNER\15.0\TEXTTEMPLATES\DSLPACKAGE\PACKAGE.TT
C:\ISEP\EDOM\EDOM-18-19-ATB-73\PROJECT-RESEARCH-TOPIC\REQUIREMENTS\DSL\DSLDEFINITION.DSL
C:\WINDOWS\MICROSOFT.NET\FRAMEWORK\V4.0.30319\MSCORLIB.DLL
C:\PROGRAM FILES (X86)\MICROSOFT VISUAL STUDIO\2017\PROFESSIONAL\COMMON7\IDE\EXTENSIONS\MICROSOFT\DSL SDK\DSL DESIGNER\15.0\MICROSOFT.VISUALSTUDIO.MODELING.SDK.DSLDEFINITION.15.0.DLL
C:\PROGRAM FILES (X86)\MICROSOFT VISUAL STUDIO\2017\PROFESSIONAL\COMMON7\IDE\PRIVATEASSEMBLIES\MICROSOFT.VISUALSTUDIO.MODELING.SDK.DIAGRAMS.15.0.DLL
C:\PROGRAM FILES (X86)\MICROSOFT VISUAL STUDIO\2017\PROFESSIONAL\COMMON7\IDE\PRIVATEASSEMBLIES\MICROSOFT.VISUALSTUDIO.MODELING.SDK.15.0.DLL
C:\PROGRAM FILES (X86)\MICROSOFT VISUAL STUDIO\2017\PROFESSIONAL\COMMON7\IDE\PUBLICASSEMBLIES\MICROSOFT.VISUALSTUDIO.TEXTTEMPLATING.MODELING.15.0.DLL
C:\WINDOWS\MICROSOFT.NET\ASSEMBLY\GAC_MSIL\SYSTEM\V4.0_4.0.0.0__B77A5C561934E089\SYSTEM.DLL
C:\WINDOWS\MICROSOFT.NET\ASSEMBLY\GAC_MSIL\WINDOWSBASE\V4.0_4.0.0.0__31BF3856AD364E35\WINDOWSBASE.DLL
C:\PROGRAM FILES (X86)\MICROSOFT VISUAL STUDIO\2017\PROFESSIONAL\MSBUILD\MICROSOFT\VISUALSTUDIO\V15.0\TEXTTEMPLATING\MICROSOFT.VISUALSTUDIO.TEXTTEMPLATING.SDK.HOST.15.0.DLL
C:\PROGRAM FILES (X86)\MICROSOFT VISUAL STUDIO\2017\PROFESSIONAL\MSBUILD\MICROSOFT\VISUALSTUDIO\V15.0\TEXTTEMPLATING\MICROSOFT.VISUALSTUDIO.TEXTTEMPLATING.15.0.DLL
C:\WINDOWS\MICROSOFT.NET\ASSEMBLY\GAC_MSIL\MICROSOFT.VISUALSTUDIO.TEXTTEMPLATING.INTERFACES.10.0\V4.0_10.0.0.0__B03F5F7F11D50A3A\MICROSOFT.VISUALSTUDIO.TEXTTEMPLATING.INTERFACES.10.0.DLL
^C:\ISEP\EDOM\EDOM-18-19-ATB-73\PROJECT-RESEARCH-TOPIC\REQUIREMENTS\DSLPACKAGE\GENERATEDCODE\COMMANDSET.TT
C:\PROGRAM FILES (X86)\MICROSOFT VISUAL STUDIO\2017\PROFESSIONAL\COMMON7\IDE\EXTENSIONS\MICROSOFT\DSL SDK\DSL DESIGNER\15.0\TEXTTEMPLATES\DSLPACKAGE\COMMANDSET.TT
C:\ISEP\EDOM\EDOM-18-19-ATB-73\PROJECT-RESEARCH-TOPIC\REQUIREMENTS\DSL\DSLDEFINITION.DSL
C:\WINDOWS\MICROSOFT.NET\FRAMEWORK\V4.0.30319\MSCORLIB.DLL
C:\PROGRAM FILES (X86)\MICROSOFT VISUAL STUDIO\2017\PROFESSIONAL\COMMON7\IDE\EXTENSIONS\MICROSOFT\DSL SDK\DSL DESIGNER\15.0\MICROSOFT.VISUALSTUDIO.MODELING.SDK.DSLDEFINITION.15.0.DLL
C:\PROGRAM FILES (X86)\MICROSOFT VISUAL STUDIO\2017\PROFESSIONAL\COMMON7\IDE\PRIVATEASSEMBLIES\MICROSOFT.VISUALSTUDIO.MODELING.SDK.DIAGRAMS.15.0.DLL
C:\PROGRAM FILES (X86)\MICROSOFT VISUAL STUDIO\2017\PROFESSIONAL\COMMON7\IDE\PRIVATEASSEMBLIES\MICROSOFT.VISUALSTUDIO.MODELING.SDK.15.0.DLL
C:\PROGRAM FILES (X86)\MICROSOFT VISUAL STUDIO\2017\PROFESSIONAL\COMMON7\IDE\PUBLICASSEMBLIES\MICROSOFT.VISUALSTUDIO.TEXTTEMPLATING.MODELING.15.0.DLL
C:\WINDOWS\MICROSOFT.NET\ASSEMBLY\GAC_MSIL\SYSTEM\V4.0_4.0.0.0__B77A5C561934E089\SYSTEM.DLL
C:\WINDOWS\MICROSOFT.NET\ASSEMBLY\GAC_MSIL\WINDOWSBASE\V4.0_4.0.0.0__31BF3856AD364E35\WINDOWSBASE.DLL
C:\PROGRAM FILES (X86)\MICROSOFT VISUAL STUDIO\2017\PROFESSIONAL\MSBUILD\MICROSOFT\VISUALSTUDIO\V15.0\TEXTTEMPLATING\MICROSOFT.VISUALSTUDIO.TEXTTEMPLATING.SDK.HOST.15.0.DLL
C:\PROGRAM FILES (X86)\MICROSOFT VISUAL STUDIO\2017\PROFESSIONAL\MSBUILD\MICROSOFT\VISUALSTUDIO\V15.0\TEXTTEMPLATING\MICROSOFT.VISUALSTUDIO.TEXTTEMPLATING.15.0.DLL
C:\WINDOWS\MICROSOFT.NET\ASSEMBLY\GAC_MSIL\MICROSOFT.VISUALSTUDIO.TEXTTEMPLATING.INTERFACES.10.0\V4.0_10.0.0.0__B03F5F7F11D50A3A\MICROSOFT.VISUALSTUDIO.TEXTTEMPLATING.INTERFACES.10.0.DLL
^C:\ISEP\EDOM\EDOM-18-19-ATB-73\PROJECT-RESEARCH-TOPIC\REQUIREMENTS\DSLPACKAGE\GENERATEDCODE\GENERATEDVSCT.TT
C:\PROGRAM FILES (X86)\MICROSOFT VISUAL STUDIO\2017\PROFESSIONAL\COMMON7\IDE\EXTENSIONS\MICROSOFT\DSL SDK\DSL DESIGNER\15.0\TEXTTEMPLATES\DSLPACKAGE\GENERATEDVSCT.TT
C:\ISEP\EDOM\EDOM-18-19-ATB-73\PROJECT-RESEARCH-TOPIC\REQUIREMENTS\DSL\DSLDEFINITION.DSL
C:\WINDOWS\MICROSOFT.NET\FRAMEWORK\V4.0.30319\MSCORLIB.DLL
C:\PROGRAM FILES (X86)\MICROSOFT VISUAL STUDIO\2017\PROFESSIONAL\COMMON7\IDE\EXTENSIONS\MICROSOFT\DSL SDK\DSL DESIGNER\15.0\MICROSOFT.VISUALSTUDIO.MODELING.SDK.DSLDEFINITION.15.0.DLL
C:\PROGRAM FILES (X86)\MICROSOFT VISUAL STUDIO\2017\PROFESSIONAL\COMMON7\IDE\PRIVATEASSEMBLIES\MICROSOFT.VISUALSTUDIO.MODELING.SDK.DIAGRAMS.15.0.DLL
C:\PROGRAM FILES (X86)\MICROSOFT VISUAL STUDIO\2017\PROFESSIONAL\COMMON7\IDE\PRIVATEASSEMBLIES\MICROSOFT.VISUALSTUDIO.MODELING.SDK.15.0.DLL
C:\PROGRAM FILES (X86)\MICROSOFT VISUAL STUDIO\2017\PROFESSIONAL\COMMON7\IDE\PUBLICASSEMBLIES\MICROSOFT.VISUALSTUDIO.TEXTTEMPLATING.MODELING.15.0.DLL
C:\WINDOWS\MICROSOFT.NET\ASSEMBLY\GAC_MSIL\SYSTEM\V4.0_4.0.0.0__B77A5C561934E089\SYSTEM.DLL
C:\WINDOWS\MICROSOFT.NET\ASSEMBLY\GAC_MSIL\WINDOWSBASE\V4.0_4.0.0.0__31BF3856AD364E35\WINDOWSBASE.DLL
C:\PROGRAM FILES (X86)\MICROSOFT VISUAL STUDIO\2017\PROFESSIONAL\MSBUILD\MICROSOFT\VISUALSTUDIO\V15.0\TEXTTEMPLATING\MICROSOFT.VISUALSTUDIO.TEXTTEMPLATING.SDK.HOST.15.0.DLL
C:\PROGRAM FILES (X86)\MICROSOFT VISUAL STUDIO\2017\PROFESSIONAL\MSBUILD\MICROSOFT\VISUALSTUDIO\V15.0\TEXTTEMPLATING\MICROSOFT.VISUALSTUDIO.TEXTTEMPLATING.15.0.DLL
C:\WINDOWS\MICROSOFT.NET\ASSEMBLY\GAC_MSIL\MICROSOFT.VISUALSTUDIO.TEXTTEMPLATING.INTERFACES.10.0\V4.0_10.0.0.0__B03F5F7F11D50A3A\MICROSOFT.VISUALSTUDIO.TEXTTEMPLATING.INTERFACES.10.0.DLL
^C:\ISEP\EDOM\EDOM-18-19-ATB-73\PROJECT-RESEARCH-TOPIC\REQUIREMENTS\DSLPACKAGE\PROJECTITEMTEMPLATES\CSHARP.TT
C:\ISEP\EDOM\EDOM-18-19-ATB-73\PROJECT-RESEARCH-TOPIC\REQUIREMENTS\DSL\DSLDEFINITION.DSL
C:\WINDOWS\MICROSOFT.NET\FRAMEWORK\V4.0.30319\MSCORLIB.DLL
C:\PROGRAM FILES (X86)\MICROSOFT VISUAL STUDIO\2017\PROFESSIONAL\COMMON7\IDE\EXTENSIONS\MICROSOFT\DSL SDK\DSL DESIGNER\15.0\MICROSOFT.VISUALSTUDIO.MODELING.SDK.DSLDEFINITION.15.0.DLL
C:\PROGRAM FILES (X86)\MICROSOFT VISUAL STUDIO\2017\PROFESSIONAL\COMMON7\IDE\PRIVATEASSEMBLIES\MICROSOFT.VISUALSTUDIO.MODELING.SDK.DIAGRAMS.15.0.DLL
C:\PROGRAM FILES (X86)\MICROSOFT VISUAL STUDIO\2017\PROFESSIONAL\COMMON7\IDE\PRIVATEASSEMBLIES\MICROSOFT.VISUALSTUDIO.MODELING.SDK.15.0.DLL
C:\PROGRAM FILES (X86)\MICROSOFT VISUAL STUDIO\2017\PROFESSIONAL\COMMON7\IDE\PUBLICASSEMBLIES\MICROSOFT.VISUALSTUDIO.TEXTTEMPLATING.MODELING.15.0.DLL
C:\WINDOWS\MICROSOFT.NET\ASSEMBLY\GAC_MSIL\SYSTEM\V4.0_4.0.0.0__B77A5C561934E089\SYSTEM.DLL
C:\WINDOWS\MICROSOFT.NET\ASSEMBLY\GAC_MSIL\WINDOWSBASE\V4.0_4.0.0.0__31BF3856AD364E35\WINDOWSBASE.DLL
C:\PROGRAM FILES (X86)\MICROSOFT VISUAL STUDIO\2017\PROFESSIONAL\MSBUILD\MICROSOFT\VISUALSTUDIO\V15.0\TEXTTEMPLATING\MICROSOFT.VISUALSTUDIO.TEXTTEMPLATING.SDK.HOST.15.0.DLL
C:\PROGRAM FILES (X86)\MICROSOFT VISUAL STUDIO\2017\PROFESSIONAL\MSBUILD\MICROSOFT\VISUALSTUDIO\V15.0\TEXTTEMPLATING\MICROSOFT.VISUALSTUDIO.TEXTTEMPLATING.15.0.DLL
C:\WINDOWS\MICROSOFT.NET\ASSEMBLY\GAC_MSIL\MICROSOFT.VISUALSTUDIO.TEXTTEMPLATING.INTERFACES.10.0\V4.0_10.0.0.0__B03F5F7F11D50A3A\MICROSOFT.VISUALSTUDIO.TEXTTEMPLATING.INTERFACES.10.0.DLL
^C:\ISEP\EDOM\EDOM-18-19-ATB-73\PROJECT-RESEARCH-TOPIC\REQUIREMENTS\DSLPACKAGE\PROJECTITEMTEMPLATES\VISUALBASIC.TT
C:\ISEP\EDOM\EDOM-18-19-ATB-73\PROJECT-RESEARCH-TOPIC\REQUIREMENTS\DSL\DSLDEFINITION.DSL
C:\WINDOWS\MICROSOFT.NET\FRAMEWORK\V4.0.30319\MSCORLIB.DLL
C:\PROGRAM FILES (X86)\MICROSOFT VISUAL STUDIO\2017\PROFESSIONAL\COMMON7\IDE\EXTENSIONS\MICROSOFT\DSL SDK\DSL DESIGNER\15.0\MICROSOFT.VISUALSTUDIO.MODELING.SDK.DSLDEFINITION.15.0.DLL
C:\PROGRAM FILES (X86)\MICROSOFT VISUAL STUDIO\2017\PROFESSIONAL\COMMON7\IDE\PRIVATEASSEMBLIES\MICROSOFT.VISUALSTUDIO.MODELING.SDK.DIAGRAMS.15.0.DLL
C:\PROGRAM FILES (X86)\MICROSOFT VISUAL STUDIO\2017\PROFESSIONAL\COMMON7\IDE\PRIVATEASSEMBLIES\MICROSOFT.VISUALSTUDIO.MODELING.SDK.15.0.DLL
C:\PROGRAM FILES (X86)\MICROSOFT VISUAL STUDIO\2017\PROFESSIONAL\COMMON7\IDE\PUBLICASSEMBLIES\MICROSOFT.VISUALSTUDIO.TEXTTEMPLATING.MODELING.15.0.DLL
C:\WINDOWS\MICROSOFT.NET\ASSEMBLY\GAC_MSIL\SYSTEM\V4.0_4.0.0.0__B77A5C561934E089\SYSTEM.DLL
C:\WINDOWS\MICROSOFT.NET\ASSEMBLY\GAC_MSIL\WINDOWSBASE\V4.0_4.0.0.0__31BF3856AD364E35\WINDOWSBASE.DLL
C:\PROGRAM FILES (X86)\MICROSOFT VISUAL STUDIO\2017\PROFESSIONAL\MSBUILD\MICROSOFT\VISUALSTUDIO\V15.0\TEXTTEMPLATING\MICROSOFT.VISUALSTUDIO.TEXTTEMPLATING.SDK.HOST.15.0.DLL
C:\PROGRAM FILES (X86)\MICROSOFT VISUAL STUDIO\2017\PROFESSIONAL\MSBUILD\MICROSOFT\VISUALSTUDIO\V15.0\TEXTTEMPLATING\MICROSOFT.VISUALSTUDIO.TEXTTEMPLATING.15.0.DLL
C:\WINDOWS\MICROSOFT.NET\ASSEMBLY\GAC_MSIL\MICROSOFT.VISUALSTUDIO.TEXTTEMPLATING.INTERFACES.10.0\V4.0_10.0.0.0__B03F5F7F11D50A3A\MICROSOFT.VISUALSTUDIO.TEXTTEMPLATING.INTERFACES.10.0.DLL
