^C:\MESTRADO\1ANO\EDOM\EDOM-18-19-SFA-10\PROJECT-RESEARCH-TOPIC\REQUIREMENTS\DSLPACKAGE\SOURCE.EXTENSION.TT
C:\MESTRADO\1ANO\EDOM\EDOM-18-19-SFA-10\PROJECT-RESEARCH-TOPIC\REQUIREMENTS\DSL\DSLDEFINITION.DSL
C:\WINDOWS\ASSEMBLY\PUBPOL72.DAT
C:\WINDOWS\ASSEMBLY\NATIVEIMAGES_V4.0.30319_32\SYSTEM\EF92FD4410D6B1E5D4B768767AD05AAA\SYSTEM.NI.DLL.AUX
C:\WINDOWS\MICROSOFT.NET\ASSEMBLY\GAC_MSIL\SYSTEM\V4.0_4.0.0.0__B77A5C561934E089\SYSTEM.DLL
C:\WINDOWS\MICROSOFT.NET\ASSEMBLY\GAC_MSIL\SYSTEM.XML\V4.0_4.0.0.0__B77A5C561934E089\SYSTEM.XML.DLL
C:\WINDOWS\ASSEMBLY\NATIVEIMAGES_V4.0.30319_32\SYSTEM.CORE\80902F10241CAEAA71D97EA6C88115A1\SYSTEM.CORE.NI.DLL.AUX
C:\WINDOWS\MICROSOFT.NET\ASSEMBLY\GAC_MSIL\SYSTEM.CORE\V4.0_4.0.0.0__B77A5C561934E089\SYSTEM.CORE.DLL
C:\PROGRAM FILES (X86)\MICROSOFT VISUAL STUDIO\2017\ENTERPRISE\COMMON7\IDE\PUBLICASSEMBLIES\MICROSOFT.VISUALSTUDIO.TEXTTEMPLATING.MODELING.15.0.DLL
C:\WINDOWS\ASSEMBLY\NATIVEIMAGES_V4.0.30319_32\WINDOWSBASE\7B6343CF1570B4156B04FC14E1E3F18C\WINDOWSBASE.NI.DLL.AUX
C:\WINDOWS\MICROSOFT.NET\ASSEMBLY\GAC_MSIL\WINDOWSBASE\V4.0_4.0.0.0__31BF3856AD364E35\WINDOWSBASE.DLL
C:\WINDOWS\SYSTEM32\PT-PT\TZRES.DLL.MUI
C:\PROGRAM FILES (X86)\MICROSOFT VISUAL STUDIO\2017\ENTERPRISE\MSBUILD\15.0\BIN\ROSLYN\MICROSOFT.CODEANALYSIS.DLL
C:\WINDOWS\ASSEMBLY\NATIVEIMAGES_V4.0.30319_32\SYSTEM.COLL4A4F96A7#\D58BCE62A371ED3E2FC4387F7342969E\SYSTEM.COLLECTIONS.IMMUTABLE.NI.DLL.AUX
C:\PROGRAM FILES (X86)\MICROSOFT VISUAL STUDIO\2017\ENTERPRISE\MSBUILD\15.0\BIN\SYSTEM.COLLECTIONS.IMMUTABLE.DLL
C:\WINDOWS\MICROSOFT.NET\ASSEMBLY\GAC_MSIL\SYSTEM.RUNTIME\V4.0_4.0.0.0__B03F5F7F11D50A3A\SYSTEM.RUNTIME.DLL
C:\WINDOWS\MICROSOFT.NET\ASSEMBLY\GAC_MSIL\SYSTEM.COLLECTIONS\V4.0_4.0.0.0__B03F5F7F11D50A3A\SYSTEM.COLLECTIONS.DLL
C:\WINDOWS\MICROSOFT.NET\ASSEMBLY\GAC_MSIL\SYSTEM.IO\V4.0_4.0.0.0__B03F5F7F11D50A3A\SYSTEM.IO.DLL
C:\WINDOWS\ASSEMBLY\NATIVEIMAGES_V4.0.30319_32\SYSTEM.IO.FILESYSTEM\7A87C3D2CBC71F0D6FC45658BCFC94D4\SYSTEM.IO.FILESYSTEM.NI.DLL.AUX
C:\WINDOWS\MICROSOFT.NET\ASSEMBLY\GAC_MSIL\SYSTEM.IO.FILESYSTEM\V4.0_4.0.0.0__B03F5F7F11D50A3A\SYSTEM.IO.FILESYSTEM.DLL
C:\PROGRAM FILES (X86)\MICROSOFT VISUAL STUDIO\2017\ENTERPRISE\MSBUILD\15.0\BIN\ROSLYN\SYSTEM.REFLECTION.METADATA.DLL
C:\WINDOWS\MICROSOFT.NET\ASSEMBLY\GAC_MSIL\SYSTEM.RUNTIME.EXTENSIONS\V4.0_4.0.0.0__B03F5F7F11D50A3A\SYSTEM.RUNTIME.EXTENSIONS.DLL
C:\WINDOWS\MICROSOFT.NET\ASSEMBLY\GAC_MSIL\SYSTEM.LINQ\V4.0_4.0.0.0__B03F5F7F11D50A3A\SYSTEM.LINQ.DLL
C:\PROGRAM FILES (X86)\MICROSOFT VISUAL STUDIO\2017\ENTERPRISE\MSBUILD\15.0\BIN\ROSLYN\MICROSOFT.CODEANALYSIS.CSHARP.DLL
C:\WINDOWS\MICROSOFT.NET\ASSEMBLY\GAC_MSIL\SYSTEM.TEXT.ENCODING\V4.0_4.0.0.0__B03F5F7F11D50A3A\SYSTEM.TEXT.ENCODING.DLL
C:\WINDOWS\MICROSOFT.NET\ASSEMBLY\GAC_MSIL\SYSTEM.THREADING\V4.0_4.0.0.0__B03F5F7F11D50A3A\SYSTEM.THREADING.DLL
C:\WINDOWS\ASSEMBLY\NATIVEIMAGES_V4.0.30319_32\SYSTEM.VALUETUPLE\FBE83012F6DC470D9DCB94E0B7CA9F94\SYSTEM.VALUETUPLE.NI.DLL.AUX
C:\WINDOWS\MICROSOFT.NET\ASSEMBLY\GAC_MSIL\SYSTEM.VALUETUPLE\V4.0_4.0.0.0__CC7B13FFCD2DDD51\SYSTEM.VALUETUPLE.DLL
C:\WINDOWS\MICROSOFT.NET\ASSEMBLY\GAC_MSIL\SYSTEM.GLOBALIZATION\V4.0_4.0.0.0__B03F5F7F11D50A3A\SYSTEM.GLOBALIZATION.DLL
C:\WINDOWS\ASSEMBLY\NATIVEIMAGES_V4.0.30319_32\SYSTEM.SECU37D0045C#\6AF386CAFED6E09591543C81AC6B44B3\SYSTEM.SECURITY.CRYPTOGRAPHY.PRIMITIVES.NI.DLL.AUX
C:\WINDOWS\MICROSOFT.NET\ASSEMBLY\GAC_MSIL\SYSTEM.SECURITY.CRYPTOGRAPHY.PRIMITIVES\V4.0_4.0.0.0__B03F5F7F11D50A3A\SYSTEM.SECURITY.CRYPTOGRAPHY.PRIMITIVES.DLL
C:\WINDOWS\ASSEMBLY\NATIVEIMAGES_V4.0.30319_32\SYSTEM.SECUAE55D472#\AD18925BAD13309A67AE946C694D9C6E\SYSTEM.SECURITY.CRYPTOGRAPHY.ALGORITHMS.NI.DLL.AUX
C:\WINDOWS\MICROSOFT.NET\ASSEMBLY\GAC_MSIL\SYSTEM.SECURITY.CRYPTOGRAPHY.ALGORITHMS\V4.0_4.0.0.0__B03F5F7F11D50A3A\SYSTEM.SECURITY.CRYPTOGRAPHY.ALGORITHMS.DLL
C:\WINDOWS\MICROSOFT.NET\ASSEMBLY\GAC_MSIL\SYSTEM.THREADING.TASKS.PARALLEL\V4.0_4.0.0.0__B03F5F7F11D50A3A\SYSTEM.THREADING.TASKS.PARALLEL.DLL
C:\WINDOWS\MICROSOFT.NET\ASSEMBLY\GAC_MSIL\SYSTEM.REFLECTION.PRIMITIVES\V4.0_4.0.0.0__B03F5F7F11D50A3A\SYSTEM.REFLECTION.PRIMITIVES.DLL
C:\WINDOWS\MICROSOFT.NET\ASSEMBLY\GAC_MSIL\SYSTEM.RUNTIME.INTEROPSERVICES\V4.0_4.0.0.0__B03F5F7F11D50A3A\SYSTEM.RUNTIME.INTEROPSERVICES.DLL
C:\WINDOWS\MICROSOFT.NET\ASSEMBLY\GAC_MSIL\SYSTEM.REFLECTION\V4.0_4.0.0.0__B03F5F7F11D50A3A\SYSTEM.REFLECTION.DLL
C:\WINDOWS\MICROSOFT.NET\FRAMEWORK\V4.0.30319\MSCORLIB.DLL
C:\PROGRAM FILES (X86)\MICROSOFT VISUAL STUDIO\2017\ENTERPRISE\COMMON7\IDE\EXTENSIONS\MICROSOFT\DSL SDK\DSL DESIGNER\15.0\MICROSOFT.VISUALSTUDIO.MODELING.SDK.DSLDEFINITION.15.0.DLL
C:\PROGRAM FILES (X86)\MICROSOFT VISUAL STUDIO\2017\ENTERPRISE\COMMON7\IDE\PRIVATEASSEMBLIES\MICROSOFT.VISUALSTUDIO.MODELING.SDK.DIAGRAMS.15.0.DLL
C:\PROGRAM FILES (X86)\MICROSOFT VISUAL STUDIO\2017\ENTERPRISE\COMMON7\IDE\PRIVATEASSEMBLIES\MICROSOFT.VISUALSTUDIO.MODELING.SDK.15.0.DLL
C:\PROGRAM FILES (X86)\MICROSOFT VISUAL STUDIO\2017\ENTERPRISE\MSBUILD\MICROSOFT\VISUALSTUDIO\V15.0\TEXTTEMPLATING\MICROSOFT.VISUALSTUDIO.TEXTTEMPLATING.SDK.HOST.15.0.DLL
C:\PROGRAM FILES (X86)\MICROSOFT VISUAL STUDIO\2017\ENTERPRISE\MSBUILD\MICROSOFT\VISUALSTUDIO\V15.0\TEXTTEMPLATING\MICROSOFT.VISUALSTUDIO.TEXTTEMPLATING.15.0.DLL
C:\PROGRAM FILES (X86)\MICROSOFT VISUAL STUDIO\2017\ENTERPRISE\MSBUILD\MICROSOFT\VISUALSTUDIO\V15.0\TEXTTEMPLATING\MICROSOFT.VISUALSTUDIO.TEXTTEMPLATING.INTERFACES.10.0.DLL
C:\WINDOWS\MICROSOFT.NET\ASSEMBLY\GAC_MSIL\SYSTEM.TEXT.ENCODING.EXTENSIONS\V4.0_4.0.0.0__B03F5F7F11D50A3A\SYSTEM.TEXT.ENCODING.EXTENSIONS.DLL
C:\WINDOWS\MICROSOFT.NET\ASSEMBLY\GAC_MSIL\SYSTEM.REFLECTION.EXTENSIONS\V4.0_4.0.0.0__B03F5F7F11D50A3A\SYSTEM.REFLECTION.EXTENSIONS.DLL
C:\WINDOWS\MICROSOFT.NET\FRAMEWORK\V4.0.30319\CONFIG\MACHINE.CONFIG
C:\PROGRAM FILES (X86)\MICROSOFT VISUAL STUDIO\2017\ENTERPRISE\MSBUILD\15.0\BIN\MSBUILD.EXE.CONFIG
C:\WINDOWS\MICROSOFT.NET\ASSEMBLY\GAC_MSIL\SYSTEM.XML.XDOCUMENT\V4.0_4.0.0.0__B03F5F7F11D50A3A\SYSTEM.XML.XDOCUMENT.DLL
C:\WINDOWS\ASSEMBLY\NATIVEIMAGES_V4.0.30319_32\SYSTEM.XML.LINQ\684BFC3057BFDA2A92BBF3B3CBB5D3F3\SYSTEM.XML.LINQ.NI.DLL.AUX
C:\WINDOWS\MICROSOFT.NET\ASSEMBLY\GAC_MSIL\SYSTEM.XML.LINQ\V4.0_4.0.0.0__B77A5C561934E089\SYSTEM.XML.LINQ.DLL
C:\WINDOWS\ASSEMBLY\NATIVEIMAGES_V4.0.30319_32\SYSTEM.XML\CC3865159952F5C1821A3AF6916363B0\SYSTEM.XML.NI.DLL.AUX
C:\WINDOWS\ASSEMBLY\NATIVEIMAGES_V4.0.30319_32\SYSTEM.XML.DD7E8ED3#\5C5F1AAABA5CAD9BBE403CDCDE03036D\SYSTEM.XML.READERWRITER.NI.DLL.AUX
C:\WINDOWS\MICROSOFT.NET\ASSEMBLY\GAC_MSIL\SYSTEM.XML.READERWRITER\V4.0_4.0.0.0__B03F5F7F11D50A3A\SYSTEM.XML.READERWRITER.DLL
C:\WINDOWS\MICROSOFT.NET\ASSEMBLY\GAC_MSIL\MICROSOFT.CSHARP\V4.0_4.0.0.0__B03F5F7F11D50A3A\MICROSOFT.CSHARP.DLL
C:\WINDOWS\MICROSOFT.NET\ASSEMBLY\GAC_MSIL\SYSTEM.DYNAMIC\V4.0_4.0.0.0__B03F5F7F11D50A3A\SYSTEM.DYNAMIC.DLL
C:\WINDOWS\ASSEMBLY\NATIVEIMAGES_V4.0.30319_32\SYSTEM.DRAWING\08626441FE724B1934292C3F853032A6\SYSTEM.DRAWING.NI.DLL.AUX
C:\WINDOWS\MICROSOFT.NET\ASSEMBLY\GAC_MSIL\SYSTEM.DRAWING\V4.0_4.0.0.0__B03F5F7F11D50A3A\SYSTEM.DRAWING.DLL
C:\WINDOWS\ASSEMBLY\NATIVEIMAGES_V4.0.30319_32\SYSTEM.WINDOWS.FORMS\23D50FB89FBDFF6E8C2EAF3FA5AFB8E3\SYSTEM.WINDOWS.FORMS.NI.DLL.AUX
C:\WINDOWS\MICROSOFT.NET\ASSEMBLY\GAC_MSIL\SYSTEM.WINDOWS.FORMS\V4.0_4.0.0.0__B77A5C561934E089\SYSTEM.WINDOWS.FORMS.DLL
C:\WINDOWS\MICROSOFT.NET\ASSEMBLY\GAC_MSIL\SYSTEM.COMPONENTMODEL.COMPOSITION\V4.0_4.0.0.0__B77A5C561934E089\SYSTEM.COMPONENTMODEL.COMPOSITION.DLL
^C:\MESTRADO\1ANO\EDOM\EDOM-18-19-SFA-10\PROJECT-RESEARCH-TOPIC\REQUIREMENTS\DSLPACKAGE\GENERATEDCODE\CONSTANTS.TT
C:\PROGRAM FILES (X86)\MICROSOFT VISUAL STUDIO\2017\ENTERPRISE\COMMON7\IDE\EXTENSIONS\MICROSOFT\DSL SDK\DSL DESIGNER\15.0\TEXTTEMPLATES\DSLPACKAGE\CONSTANTS.TT
C:\MESTRADO\1ANO\EDOM\EDOM-18-19-SFA-10\PROJECT-RESEARCH-TOPIC\REQUIREMENTS\DSL\DSLDEFINITION.DSL
C:\WINDOWS\MICROSOFT.NET\FRAMEWORK\V4.0.30319\MSCORLIB.DLL
C:\PROGRAM FILES (X86)\MICROSOFT VISUAL STUDIO\2017\ENTERPRISE\COMMON7\IDE\EXTENSIONS\MICROSOFT\DSL SDK\DSL DESIGNER\15.0\MICROSOFT.VISUALSTUDIO.MODELING.SDK.DSLDEFINITION.15.0.DLL
C:\PROGRAM FILES (X86)\MICROSOFT VISUAL STUDIO\2017\ENTERPRISE\COMMON7\IDE\PRIVATEASSEMBLIES\MICROSOFT.VISUALSTUDIO.MODELING.SDK.DIAGRAMS.15.0.DLL
C:\PROGRAM FILES (X86)\MICROSOFT VISUAL STUDIO\2017\ENTERPRISE\COMMON7\IDE\PRIVATEASSEMBLIES\MICROSOFT.VISUALSTUDIO.MODELING.SDK.15.0.DLL
C:\PROGRAM FILES (X86)\MICROSOFT VISUAL STUDIO\2017\ENTERPRISE\COMMON7\IDE\PUBLICASSEMBLIES\MICROSOFT.VISUALSTUDIO.TEXTTEMPLATING.MODELING.15.0.DLL
C:\WINDOWS\MICROSOFT.NET\ASSEMBLY\GAC_MSIL\SYSTEM\V4.0_4.0.0.0__B77A5C561934E089\SYSTEM.DLL
C:\WINDOWS\MICROSOFT.NET\ASSEMBLY\GAC_MSIL\WINDOWSBASE\V4.0_4.0.0.0__31BF3856AD364E35\WINDOWSBASE.DLL
C:\PROGRAM FILES (X86)\MICROSOFT VISUAL STUDIO\2017\ENTERPRISE\MSBUILD\MICROSOFT\VISUALSTUDIO\V15.0\TEXTTEMPLATING\MICROSOFT.VISUALSTUDIO.TEXTTEMPLATING.SDK.HOST.15.0.DLL
C:\PROGRAM FILES (X86)\MICROSOFT VISUAL STUDIO\2017\ENTERPRISE\MSBUILD\MICROSOFT\VISUALSTUDIO\V15.0\TEXTTEMPLATING\MICROSOFT.VISUALSTUDIO.TEXTTEMPLATING.15.0.DLL
C:\PROGRAM FILES (X86)\MICROSOFT VISUAL STUDIO\2017\ENTERPRISE\MSBUILD\MICROSOFT\VISUALSTUDIO\V15.0\TEXTTEMPLATING\MICROSOFT.VISUALSTUDIO.TEXTTEMPLATING.INTERFACES.10.0.DLL
^C:\MESTRADO\1ANO\EDOM\EDOM-18-19-SFA-10\PROJECT-RESEARCH-TOPIC\REQUIREMENTS\DSLPACKAGE\GENERATEDCODE\DOCDATA.TT
C:\PROGRAM FILES (X86)\MICROSOFT VISUAL STUDIO\2017\ENTERPRISE\COMMON7\IDE\EXTENSIONS\MICROSOFT\DSL SDK\DSL DESIGNER\15.0\TEXTTEMPLATES\DSLPACKAGE\DOCDATA.TT
C:\MESTRADO\1ANO\EDOM\EDOM-18-19-SFA-10\PROJECT-RESEARCH-TOPIC\REQUIREMENTS\DSL\DSLDEFINITION.DSL
C:\WINDOWS\MICROSOFT.NET\FRAMEWORK\V4.0.30319\MSCORLIB.DLL
C:\PROGRAM FILES (X86)\MICROSOFT VISUAL STUDIO\2017\ENTERPRISE\COMMON7\IDE\EXTENSIONS\MICROSOFT\DSL SDK\DSL DESIGNER\15.0\MICROSOFT.VISUALSTUDIO.MODELING.SDK.DSLDEFINITION.15.0.DLL
C:\PROGRAM FILES (X86)\MICROSOFT VISUAL STUDIO\2017\ENTERPRISE\COMMON7\IDE\PRIVATEASSEMBLIES\MICROSOFT.VISUALSTUDIO.MODELING.SDK.DIAGRAMS.15.0.DLL
C:\PROGRAM FILES (X86)\MICROSOFT VISUAL STUDIO\2017\ENTERPRISE\COMMON7\IDE\PRIVATEASSEMBLIES\MICROSOFT.VISUALSTUDIO.MODELING.SDK.15.0.DLL
C:\PROGRAM FILES (X86)\MICROSOFT VISUAL STUDIO\2017\ENTERPRISE\COMMON7\IDE\PUBLICASSEMBLIES\MICROSOFT.VISUALSTUDIO.TEXTTEMPLATING.MODELING.15.0.DLL
C:\WINDOWS\MICROSOFT.NET\ASSEMBLY\GAC_MSIL\SYSTEM\V4.0_4.0.0.0__B77A5C561934E089\SYSTEM.DLL
C:\WINDOWS\MICROSOFT.NET\ASSEMBLY\GAC_MSIL\WINDOWSBASE\V4.0_4.0.0.0__31BF3856AD364E35\WINDOWSBASE.DLL
C:\PROGRAM FILES (X86)\MICROSOFT VISUAL STUDIO\2017\ENTERPRISE\MSBUILD\MICROSOFT\VISUALSTUDIO\V15.0\TEXTTEMPLATING\MICROSOFT.VISUALSTUDIO.TEXTTEMPLATING.SDK.HOST.15.0.DLL
C:\PROGRAM FILES (X86)\MICROSOFT VISUAL STUDIO\2017\ENTERPRISE\MSBUILD\MICROSOFT\VISUALSTUDIO\V15.0\TEXTTEMPLATING\MICROSOFT.VISUALSTUDIO.TEXTTEMPLATING.15.0.DLL
C:\PROGRAM FILES (X86)\MICROSOFT VISUAL STUDIO\2017\ENTERPRISE\MSBUILD\MICROSOFT\VISUALSTUDIO\V15.0\TEXTTEMPLATING\MICROSOFT.VISUALSTUDIO.TEXTTEMPLATING.INTERFACES.10.0.DLL
^C:\MESTRADO\1ANO\EDOM\EDOM-18-19-SFA-10\PROJECT-RESEARCH-TOPIC\REQUIREMENTS\DSLPACKAGE\GENERATEDCODE\DOCVIEW.TT
C:\PROGRAM FILES (X86)\MICROSOFT VISUAL STUDIO\2017\ENTERPRISE\COMMON7\IDE\EXTENSIONS\MICROSOFT\DSL SDK\DSL DESIGNER\15.0\TEXTTEMPLATES\DSLPACKAGE\DOCVIEW.TT
C:\MESTRADO\1ANO\EDOM\EDOM-18-19-SFA-10\PROJECT-RESEARCH-TOPIC\REQUIREMENTS\DSL\DSLDEFINITION.DSL
C:\WINDOWS\MICROSOFT.NET\FRAMEWORK\V4.0.30319\MSCORLIB.DLL
C:\PROGRAM FILES (X86)\MICROSOFT VISUAL STUDIO\2017\ENTERPRISE\COMMON7\IDE\EXTENSIONS\MICROSOFT\DSL SDK\DSL DESIGNER\15.0\MICROSOFT.VISUALSTUDIO.MODELING.SDK.DSLDEFINITION.15.0.DLL
C:\PROGRAM FILES (X86)\MICROSOFT VISUAL STUDIO\2017\ENTERPRISE\COMMON7\IDE\PRIVATEASSEMBLIES\MICROSOFT.VISUALSTUDIO.MODELING.SDK.DIAGRAMS.15.0.DLL
C:\PROGRAM FILES (X86)\MICROSOFT VISUAL STUDIO\2017\ENTERPRISE\COMMON7\IDE\PRIVATEASSEMBLIES\MICROSOFT.VISUALSTUDIO.MODELING.SDK.15.0.DLL
C:\PROGRAM FILES (X86)\MICROSOFT VISUAL STUDIO\2017\ENTERPRISE\COMMON7\IDE\PUBLICASSEMBLIES\MICROSOFT.VISUALSTUDIO.TEXTTEMPLATING.MODELING.15.0.DLL
C:\WINDOWS\MICROSOFT.NET\ASSEMBLY\GAC_MSIL\SYSTEM\V4.0_4.0.0.0__B77A5C561934E089\SYSTEM.DLL
C:\WINDOWS\MICROSOFT.NET\ASSEMBLY\GAC_MSIL\WINDOWSBASE\V4.0_4.0.0.0__31BF3856AD364E35\WINDOWSBASE.DLL
C:\PROGRAM FILES (X86)\MICROSOFT VISUAL STUDIO\2017\ENTERPRISE\MSBUILD\MICROSOFT\VISUALSTUDIO\V15.0\TEXTTEMPLATING\MICROSOFT.VISUALSTUDIO.TEXTTEMPLATING.SDK.HOST.15.0.DLL
C:\PROGRAM FILES (X86)\MICROSOFT VISUAL STUDIO\2017\ENTERPRISE\MSBUILD\MICROSOFT\VISUALSTUDIO\V15.0\TEXTTEMPLATING\MICROSOFT.VISUALSTUDIO.TEXTTEMPLATING.15.0.DLL
C:\PROGRAM FILES (X86)\MICROSOFT VISUAL STUDIO\2017\ENTERPRISE\MSBUILD\MICROSOFT\VISUALSTUDIO\V15.0\TEXTTEMPLATING\MICROSOFT.VISUALSTUDIO.TEXTTEMPLATING.INTERFACES.10.0.DLL
^C:\MESTRADO\1ANO\EDOM\EDOM-18-19-SFA-10\PROJECT-RESEARCH-TOPIC\REQUIREMENTS\DSLPACKAGE\GENERATEDCODE\MODELEXPLORER.TT
C:\PROGRAM FILES (X86)\MICROSOFT VISUAL STUDIO\2017\ENTERPRISE\COMMON7\IDE\EXTENSIONS\MICROSOFT\DSL SDK\DSL DESIGNER\15.0\TEXTTEMPLATES\DSLPACKAGE\MODELEXPLORER.TT
C:\PROGRAM FILES (X86)\MICROSOFT VISUAL STUDIO\2017\ENTERPRISE\COMMON7\IDE\EXTENSIONS\MICROSOFT\DSL SDK\DSL DESIGNER\15.0\TEXTTEMPLATES\DSL\PATHMERGE.TT
C:\MESTRADO\1ANO\EDOM\EDOM-18-19-SFA-10\PROJECT-RESEARCH-TOPIC\REQUIREMENTS\DSL\DSLDEFINITION.DSL
C:\WINDOWS\MICROSOFT.NET\FRAMEWORK\V4.0.30319\MSCORLIB.DLL
C:\PROGRAM FILES (X86)\MICROSOFT VISUAL STUDIO\2017\ENTERPRISE\COMMON7\IDE\EXTENSIONS\MICROSOFT\DSL SDK\DSL DESIGNER\15.0\MICROSOFT.VISUALSTUDIO.MODELING.SDK.DSLDEFINITION.15.0.DLL
C:\PROGRAM FILES (X86)\MICROSOFT VISUAL STUDIO\2017\ENTERPRISE\COMMON7\IDE\PRIVATEASSEMBLIES\MICROSOFT.VISUALSTUDIO.MODELING.SDK.DIAGRAMS.15.0.DLL
C:\PROGRAM FILES (X86)\MICROSOFT VISUAL STUDIO\2017\ENTERPRISE\COMMON7\IDE\PRIVATEASSEMBLIES\MICROSOFT.VISUALSTUDIO.MODELING.SDK.15.0.DLL
C:\PROGRAM FILES (X86)\MICROSOFT VISUAL STUDIO\2017\ENTERPRISE\COMMON7\IDE\PUBLICASSEMBLIES\MICROSOFT.VISUALSTUDIO.TEXTTEMPLATING.MODELING.15.0.DLL
C:\WINDOWS\MICROSOFT.NET\ASSEMBLY\GAC_MSIL\SYSTEM\V4.0_4.0.0.0__B77A5C561934E089\SYSTEM.DLL
C:\WINDOWS\MICROSOFT.NET\ASSEMBLY\GAC_MSIL\WINDOWSBASE\V4.0_4.0.0.0__31BF3856AD364E35\WINDOWSBASE.DLL
C:\PROGRAM FILES (X86)\MICROSOFT VISUAL STUDIO\2017\ENTERPRISE\MSBUILD\MICROSOFT\VISUALSTUDIO\V15.0\TEXTTEMPLATING\MICROSOFT.VISUALSTUDIO.TEXTTEMPLATING.SDK.HOST.15.0.DLL
C:\PROGRAM FILES (X86)\MICROSOFT VISUAL STUDIO\2017\ENTERPRISE\MSBUILD\MICROSOFT\VISUALSTUDIO\V15.0\TEXTTEMPLATING\MICROSOFT.VISUALSTUDIO.TEXTTEMPLATING.15.0.DLL
C:\PROGRAM FILES (X86)\MICROSOFT VISUAL STUDIO\2017\ENTERPRISE\MSBUILD\MICROSOFT\VISUALSTUDIO\V15.0\TEXTTEMPLATING\MICROSOFT.VISUALSTUDIO.TEXTTEMPLATING.INTERFACES.10.0.DLL
^C:\MESTRADO\1ANO\EDOM\EDOM-18-19-SFA-10\PROJECT-RESEARCH-TOPIC\REQUIREMENTS\DSLPACKAGE\GENERATEDCODE\EDITORFACTORY.TT
C:\PROGRAM FILES (X86)\MICROSOFT VISUAL STUDIO\2017\ENTERPRISE\COMMON7\IDE\EXTENSIONS\MICROSOFT\DSL SDK\DSL DESIGNER\15.0\TEXTTEMPLATES\DSLPACKAGE\EDITORFACTORY.TT
C:\MESTRADO\1ANO\EDOM\EDOM-18-19-SFA-10\PROJECT-RESEARCH-TOPIC\REQUIREMENTS\DSL\DSLDEFINITION.DSL
C:\WINDOWS\MICROSOFT.NET\FRAMEWORK\V4.0.30319\MSCORLIB.DLL
C:\PROGRAM FILES (X86)\MICROSOFT VISUAL STUDIO\2017\ENTERPRISE\COMMON7\IDE\EXTENSIONS\MICROSOFT\DSL SDK\DSL DESIGNER\15.0\MICROSOFT.VISUALSTUDIO.MODELING.SDK.DSLDEFINITION.15.0.DLL
C:\PROGRAM FILES (X86)\MICROSOFT VISUAL STUDIO\2017\ENTERPRISE\COMMON7\IDE\PRIVATEASSEMBLIES\MICROSOFT.VISUALSTUDIO.MODELING.SDK.DIAGRAMS.15.0.DLL
C:\PROGRAM FILES (X86)\MICROSOFT VISUAL STUDIO\2017\ENTERPRISE\COMMON7\IDE\PRIVATEASSEMBLIES\MICROSOFT.VISUALSTUDIO.MODELING.SDK.15.0.DLL
C:\PROGRAM FILES (X86)\MICROSOFT VISUAL STUDIO\2017\ENTERPRISE\COMMON7\IDE\PUBLICASSEMBLIES\MICROSOFT.VISUALSTUDIO.TEXTTEMPLATING.MODELING.15.0.DLL
C:\WINDOWS\MICROSOFT.NET\ASSEMBLY\GAC_MSIL\SYSTEM\V4.0_4.0.0.0__B77A5C561934E089\SYSTEM.DLL
C:\WINDOWS\MICROSOFT.NET\ASSEMBLY\GAC_MSIL\WINDOWSBASE\V4.0_4.0.0.0__31BF3856AD364E35\WINDOWSBASE.DLL
C:\PROGRAM FILES (X86)\MICROSOFT VISUAL STUDIO\2017\ENTERPRISE\MSBUILD\MICROSOFT\VISUALSTUDIO\V15.0\TEXTTEMPLATING\MICROSOFT.VISUALSTUDIO.TEXTTEMPLATING.SDK.HOST.15.0.DLL
C:\PROGRAM FILES (X86)\MICROSOFT VISUAL STUDIO\2017\ENTERPRISE\MSBUILD\MICROSOFT\VISUALSTUDIO\V15.0\TEXTTEMPLATING\MICROSOFT.VISUALSTUDIO.TEXTTEMPLATING.15.0.DLL
C:\PROGRAM FILES (X86)\MICROSOFT VISUAL STUDIO\2017\ENTERPRISE\MSBUILD\MICROSOFT\VISUALSTUDIO\V15.0\TEXTTEMPLATING\MICROSOFT.VISUALSTUDIO.TEXTTEMPLATING.INTERFACES.10.0.DLL
^C:\MESTRADO\1ANO\EDOM\EDOM-18-19-SFA-10\PROJECT-RESEARCH-TOPIC\REQUIREMENTS\DSLPACKAGE\GENERATEDCODE\MODELEXPLORERTOOLWINDOW.TT
C:\PROGRAM FILES (X86)\MICROSOFT VISUAL STUDIO\2017\ENTERPRISE\COMMON7\IDE\EXTENSIONS\MICROSOFT\DSL SDK\DSL DESIGNER\15.0\TEXTTEMPLATES\DSLPACKAGE\MODELEXPLORERTOOLWINDOW.TT
C:\MESTRADO\1ANO\EDOM\EDOM-18-19-SFA-10\PROJECT-RESEARCH-TOPIC\REQUIREMENTS\DSL\DSLDEFINITION.DSL
C:\WINDOWS\MICROSOFT.NET\FRAMEWORK\V4.0.30319\MSCORLIB.DLL
C:\PROGRAM FILES (X86)\MICROSOFT VISUAL STUDIO\2017\ENTERPRISE\COMMON7\IDE\EXTENSIONS\MICROSOFT\DSL SDK\DSL DESIGNER\15.0\MICROSOFT.VISUALSTUDIO.MODELING.SDK.DSLDEFINITION.15.0.DLL
C:\PROGRAM FILES (X86)\MICROSOFT VISUAL STUDIO\2017\ENTERPRISE\COMMON7\IDE\PRIVATEASSEMBLIES\MICROSOFT.VISUALSTUDIO.MODELING.SDK.DIAGRAMS.15.0.DLL
C:\PROGRAM FILES (X86)\MICROSOFT VISUAL STUDIO\2017\ENTERPRISE\COMMON7\IDE\PRIVATEASSEMBLIES\MICROSOFT.VISUALSTUDIO.MODELING.SDK.15.0.DLL
C:\PROGRAM FILES (X86)\MICROSOFT VISUAL STUDIO\2017\ENTERPRISE\COMMON7\IDE\PUBLICASSEMBLIES\MICROSOFT.VISUALSTUDIO.TEXTTEMPLATING.MODELING.15.0.DLL
C:\WINDOWS\MICROSOFT.NET\ASSEMBLY\GAC_MSIL\SYSTEM\V4.0_4.0.0.0__B77A5C561934E089\SYSTEM.DLL
C:\WINDOWS\MICROSOFT.NET\ASSEMBLY\GAC_MSIL\WINDOWSBASE\V4.0_4.0.0.0__31BF3856AD364E35\WINDOWSBASE.DLL
C:\PROGRAM FILES (X86)\MICROSOFT VISUAL STUDIO\2017\ENTERPRISE\MSBUILD\MICROSOFT\VISUALSTUDIO\V15.0\TEXTTEMPLATING\MICROSOFT.VISUALSTUDIO.TEXTTEMPLATING.SDK.HOST.15.0.DLL
C:\PROGRAM FILES (X86)\MICROSOFT VISUAL STUDIO\2017\ENTERPRISE\MSBUILD\MICROSOFT\VISUALSTUDIO\V15.0\TEXTTEMPLATING\MICROSOFT.VISUALSTUDIO.TEXTTEMPLATING.15.0.DLL
C:\PROGRAM FILES (X86)\MICROSOFT VISUAL STUDIO\2017\ENTERPRISE\MSBUILD\MICROSOFT\VISUALSTUDIO\V15.0\TEXTTEMPLATING\MICROSOFT.VISUALSTUDIO.TEXTTEMPLATING.INTERFACES.10.0.DLL
^C:\MESTRADO\1ANO\EDOM\EDOM-18-19-SFA-10\PROJECT-RESEARCH-TOPIC\REQUIREMENTS\DSLPACKAGE\GENERATEDCODE\PACKAGE.TT
C:\PROGRAM FILES (X86)\MICROSOFT VISUAL STUDIO\2017\ENTERPRISE\COMMON7\IDE\EXTENSIONS\MICROSOFT\DSL SDK\DSL DESIGNER\15.0\TEXTTEMPLATES\DSLPACKAGE\PACKAGE.TT
C:\MESTRADO\1ANO\EDOM\EDOM-18-19-SFA-10\PROJECT-RESEARCH-TOPIC\REQUIREMENTS\DSL\DSLDEFINITION.DSL
C:\WINDOWS\MICROSOFT.NET\FRAMEWORK\V4.0.30319\MSCORLIB.DLL
C:\PROGRAM FILES (X86)\MICROSOFT VISUAL STUDIO\2017\ENTERPRISE\COMMON7\IDE\EXTENSIONS\MICROSOFT\DSL SDK\DSL DESIGNER\15.0\MICROSOFT.VISUALSTUDIO.MODELING.SDK.DSLDEFINITION.15.0.DLL
C:\PROGRAM FILES (X86)\MICROSOFT VISUAL STUDIO\2017\ENTERPRISE\COMMON7\IDE\PRIVATEASSEMBLIES\MICROSOFT.VISUALSTUDIO.MODELING.SDK.DIAGRAMS.15.0.DLL
C:\PROGRAM FILES (X86)\MICROSOFT VISUAL STUDIO\2017\ENTERPRISE\COMMON7\IDE\PRIVATEASSEMBLIES\MICROSOFT.VISUALSTUDIO.MODELING.SDK.15.0.DLL
C:\PROGRAM FILES (X86)\MICROSOFT VISUAL STUDIO\2017\ENTERPRISE\COMMON7\IDE\PUBLICASSEMBLIES\MICROSOFT.VISUALSTUDIO.TEXTTEMPLATING.MODELING.15.0.DLL
C:\WINDOWS\MICROSOFT.NET\ASSEMBLY\GAC_MSIL\SYSTEM\V4.0_4.0.0.0__B77A5C561934E089\SYSTEM.DLL
C:\WINDOWS\MICROSOFT.NET\ASSEMBLY\GAC_MSIL\WINDOWSBASE\V4.0_4.0.0.0__31BF3856AD364E35\WINDOWSBASE.DLL
C:\PROGRAM FILES (X86)\MICROSOFT VISUAL STUDIO\2017\ENTERPRISE\MSBUILD\MICROSOFT\VISUALSTUDIO\V15.0\TEXTTEMPLATING\MICROSOFT.VISUALSTUDIO.TEXTTEMPLATING.SDK.HOST.15.0.DLL
C:\PROGRAM FILES (X86)\MICROSOFT VISUAL STUDIO\2017\ENTERPRISE\MSBUILD\MICROSOFT\VISUALSTUDIO\V15.0\TEXTTEMPLATING\MICROSOFT.VISUALSTUDIO.TEXTTEMPLATING.15.0.DLL
C:\PROGRAM FILES (X86)\MICROSOFT VISUAL STUDIO\2017\ENTERPRISE\MSBUILD\MICROSOFT\VISUALSTUDIO\V15.0\TEXTTEMPLATING\MICROSOFT.VISUALSTUDIO.TEXTTEMPLATING.INTERFACES.10.0.DLL
^C:\MESTRADO\1ANO\EDOM\EDOM-18-19-SFA-10\PROJECT-RESEARCH-TOPIC\REQUIREMENTS\DSLPACKAGE\GENERATEDCODE\COMMANDSET.TT
C:\PROGRAM FILES (X86)\MICROSOFT VISUAL STUDIO\2017\ENTERPRISE\COMMON7\IDE\EXTENSIONS\MICROSOFT\DSL SDK\DSL DESIGNER\15.0\TEXTTEMPLATES\DSLPACKAGE\COMMANDSET.TT
C:\MESTRADO\1ANO\EDOM\EDOM-18-19-SFA-10\PROJECT-RESEARCH-TOPIC\REQUIREMENTS\DSL\DSLDEFINITION.DSL
C:\WINDOWS\MICROSOFT.NET\FRAMEWORK\V4.0.30319\MSCORLIB.DLL
C:\PROGRAM FILES (X86)\MICROSOFT VISUAL STUDIO\2017\ENTERPRISE\COMMON7\IDE\EXTENSIONS\MICROSOFT\DSL SDK\DSL DESIGNER\15.0\MICROSOFT.VISUALSTUDIO.MODELING.SDK.DSLDEFINITION.15.0.DLL
C:\PROGRAM FILES (X86)\MICROSOFT VISUAL STUDIO\2017\ENTERPRISE\COMMON7\IDE\PRIVATEASSEMBLIES\MICROSOFT.VISUALSTUDIO.MODELING.SDK.DIAGRAMS.15.0.DLL
C:\PROGRAM FILES (X86)\MICROSOFT VISUAL STUDIO\2017\ENTERPRISE\COMMON7\IDE\PRIVATEASSEMBLIES\MICROSOFT.VISUALSTUDIO.MODELING.SDK.15.0.DLL
C:\PROGRAM FILES (X86)\MICROSOFT VISUAL STUDIO\2017\ENTERPRISE\COMMON7\IDE\PUBLICASSEMBLIES\MICROSOFT.VISUALSTUDIO.TEXTTEMPLATING.MODELING.15.0.DLL
C:\WINDOWS\MICROSOFT.NET\ASSEMBLY\GAC_MSIL\SYSTEM\V4.0_4.0.0.0__B77A5C561934E089\SYSTEM.DLL
C:\WINDOWS\MICROSOFT.NET\ASSEMBLY\GAC_MSIL\WINDOWSBASE\V4.0_4.0.0.0__31BF3856AD364E35\WINDOWSBASE.DLL
C:\PROGRAM FILES (X86)\MICROSOFT VISUAL STUDIO\2017\ENTERPRISE\MSBUILD\MICROSOFT\VISUALSTUDIO\V15.0\TEXTTEMPLATING\MICROSOFT.VISUALSTUDIO.TEXTTEMPLATING.SDK.HOST.15.0.DLL
C:\PROGRAM FILES (X86)\MICROSOFT VISUAL STUDIO\2017\ENTERPRISE\MSBUILD\MICROSOFT\VISUALSTUDIO\V15.0\TEXTTEMPLATING\MICROSOFT.VISUALSTUDIO.TEXTTEMPLATING.15.0.DLL
C:\PROGRAM FILES (X86)\MICROSOFT VISUAL STUDIO\2017\ENTERPRISE\MSBUILD\MICROSOFT\VISUALSTUDIO\V15.0\TEXTTEMPLATING\MICROSOFT.VISUALSTUDIO.TEXTTEMPLATING.INTERFACES.10.0.DLL
^C:\MESTRADO\1ANO\EDOM\EDOM-18-19-SFA-10\PROJECT-RESEARCH-TOPIC\REQUIREMENTS\DSLPACKAGE\GENERATEDCODE\GENERATEDVSCT.TT
C:\PROGRAM FILES (X86)\MICROSOFT VISUAL STUDIO\2017\ENTERPRISE\COMMON7\IDE\EXTENSIONS\MICROSOFT\DSL SDK\DSL DESIGNER\15.0\TEXTTEMPLATES\DSLPACKAGE\GENERATEDVSCT.TT
C:\MESTRADO\1ANO\EDOM\EDOM-18-19-SFA-10\PROJECT-RESEARCH-TOPIC\REQUIREMENTS\DSL\DSLDEFINITION.DSL
C:\WINDOWS\MICROSOFT.NET\FRAMEWORK\V4.0.30319\MSCORLIB.DLL
C:\PROGRAM FILES (X86)\MICROSOFT VISUAL STUDIO\2017\ENTERPRISE\COMMON7\IDE\EXTENSIONS\MICROSOFT\DSL SDK\DSL DESIGNER\15.0\MICROSOFT.VISUALSTUDIO.MODELING.SDK.DSLDEFINITION.15.0.DLL
C:\PROGRAM FILES (X86)\MICROSOFT VISUAL STUDIO\2017\ENTERPRISE\COMMON7\IDE\PRIVATEASSEMBLIES\MICROSOFT.VISUALSTUDIO.MODELING.SDK.DIAGRAMS.15.0.DLL
C:\PROGRAM FILES (X86)\MICROSOFT VISUAL STUDIO\2017\ENTERPRISE\COMMON7\IDE\PRIVATEASSEMBLIES\MICROSOFT.VISUALSTUDIO.MODELING.SDK.15.0.DLL
C:\PROGRAM FILES (X86)\MICROSOFT VISUAL STUDIO\2017\ENTERPRISE\COMMON7\IDE\PUBLICASSEMBLIES\MICROSOFT.VISUALSTUDIO.TEXTTEMPLATING.MODELING.15.0.DLL
C:\WINDOWS\MICROSOFT.NET\ASSEMBLY\GAC_MSIL\SYSTEM\V4.0_4.0.0.0__B77A5C561934E089\SYSTEM.DLL
C:\WINDOWS\MICROSOFT.NET\ASSEMBLY\GAC_MSIL\WINDOWSBASE\V4.0_4.0.0.0__31BF3856AD364E35\WINDOWSBASE.DLL
C:\PROGRAM FILES (X86)\MICROSOFT VISUAL STUDIO\2017\ENTERPRISE\MSBUILD\MICROSOFT\VISUALSTUDIO\V15.0\TEXTTEMPLATING\MICROSOFT.VISUALSTUDIO.TEXTTEMPLATING.SDK.HOST.15.0.DLL
C:\PROGRAM FILES (X86)\MICROSOFT VISUAL STUDIO\2017\ENTERPRISE\MSBUILD\MICROSOFT\VISUALSTUDIO\V15.0\TEXTTEMPLATING\MICROSOFT.VISUALSTUDIO.TEXTTEMPLATING.15.0.DLL
C:\PROGRAM FILES (X86)\MICROSOFT VISUAL STUDIO\2017\ENTERPRISE\MSBUILD\MICROSOFT\VISUALSTUDIO\V15.0\TEXTTEMPLATING\MICROSOFT.VISUALSTUDIO.TEXTTEMPLATING.INTERFACES.10.0.DLL
^C:\MESTRADO\1ANO\EDOM\EDOM-18-19-SFA-10\PROJECT-RESEARCH-TOPIC\REQUIREMENTS\DSLPACKAGE\PROJECTITEMTEMPLATES\CSHARP.TT
C:\MESTRADO\1ANO\EDOM\EDOM-18-19-SFA-10\PROJECT-RESEARCH-TOPIC\REQUIREMENTS\DSL\DSLDEFINITION.DSL
C:\WINDOWS\MICROSOFT.NET\FRAMEWORK\V4.0.30319\MSCORLIB.DLL
C:\PROGRAM FILES (X86)\MICROSOFT VISUAL STUDIO\2017\ENTERPRISE\COMMON7\IDE\EXTENSIONS\MICROSOFT\DSL SDK\DSL DESIGNER\15.0\MICROSOFT.VISUALSTUDIO.MODELING.SDK.DSLDEFINITION.15.0.DLL
C:\PROGRAM FILES (X86)\MICROSOFT VISUAL STUDIO\2017\ENTERPRISE\COMMON7\IDE\PRIVATEASSEMBLIES\MICROSOFT.VISUALSTUDIO.MODELING.SDK.DIAGRAMS.15.0.DLL
C:\PROGRAM FILES (X86)\MICROSOFT VISUAL STUDIO\2017\ENTERPRISE\COMMON7\IDE\PRIVATEASSEMBLIES\MICROSOFT.VISUALSTUDIO.MODELING.SDK.15.0.DLL
C:\PROGRAM FILES (X86)\MICROSOFT VISUAL STUDIO\2017\ENTERPRISE\COMMON7\IDE\PUBLICASSEMBLIES\MICROSOFT.VISUALSTUDIO.TEXTTEMPLATING.MODELING.15.0.DLL
C:\WINDOWS\MICROSOFT.NET\ASSEMBLY\GAC_MSIL\SYSTEM\V4.0_4.0.0.0__B77A5C561934E089\SYSTEM.DLL
C:\WINDOWS\MICROSOFT.NET\ASSEMBLY\GAC_MSIL\WINDOWSBASE\V4.0_4.0.0.0__31BF3856AD364E35\WINDOWSBASE.DLL
C:\PROGRAM FILES (X86)\MICROSOFT VISUAL STUDIO\2017\ENTERPRISE\MSBUILD\MICROSOFT\VISUALSTUDIO\V15.0\TEXTTEMPLATING\MICROSOFT.VISUALSTUDIO.TEXTTEMPLATING.SDK.HOST.15.0.DLL
C:\PROGRAM FILES (X86)\MICROSOFT VISUAL STUDIO\2017\ENTERPRISE\MSBUILD\MICROSOFT\VISUALSTUDIO\V15.0\TEXTTEMPLATING\MICROSOFT.VISUALSTUDIO.TEXTTEMPLATING.15.0.DLL
C:\PROGRAM FILES (X86)\MICROSOFT VISUAL STUDIO\2017\ENTERPRISE\MSBUILD\MICROSOFT\VISUALSTUDIO\V15.0\TEXTTEMPLATING\MICROSOFT.VISUALSTUDIO.TEXTTEMPLATING.INTERFACES.10.0.DLL
^C:\MESTRADO\1ANO\EDOM\EDOM-18-19-SFA-10\PROJECT-RESEARCH-TOPIC\REQUIREMENTS\DSLPACKAGE\PROJECTITEMTEMPLATES\VISUALBASIC.TT
C:\MESTRADO\1ANO\EDOM\EDOM-18-19-SFA-10\PROJECT-RESEARCH-TOPIC\REQUIREMENTS\DSL\DSLDEFINITION.DSL
C:\WINDOWS\MICROSOFT.NET\FRAMEWORK\V4.0.30319\MSCORLIB.DLL
C:\PROGRAM FILES (X86)\MICROSOFT VISUAL STUDIO\2017\ENTERPRISE\COMMON7\IDE\EXTENSIONS\MICROSOFT\DSL SDK\DSL DESIGNER\15.0\MICROSOFT.VISUALSTUDIO.MODELING.SDK.DSLDEFINITION.15.0.DLL
C:\PROGRAM FILES (X86)\MICROSOFT VISUAL STUDIO\2017\ENTERPRISE\COMMON7\IDE\PRIVATEASSEMBLIES\MICROSOFT.VISUALSTUDIO.MODELING.SDK.DIAGRAMS.15.0.DLL
C:\PROGRAM FILES (X86)\MICROSOFT VISUAL STUDIO\2017\ENTERPRISE\COMMON7\IDE\PRIVATEASSEMBLIES\MICROSOFT.VISUALSTUDIO.MODELING.SDK.15.0.DLL
C:\PROGRAM FILES (X86)\MICROSOFT VISUAL STUDIO\2017\ENTERPRISE\COMMON7\IDE\PUBLICASSEMBLIES\MICROSOFT.VISUALSTUDIO.TEXTTEMPLATING.MODELING.15.0.DLL
C:\WINDOWS\MICROSOFT.NET\ASSEMBLY\GAC_MSIL\SYSTEM\V4.0_4.0.0.0__B77A5C561934E089\SYSTEM.DLL
C:\WINDOWS\MICROSOFT.NET\ASSEMBLY\GAC_MSIL\WINDOWSBASE\V4.0_4.0.0.0__31BF3856AD364E35\WINDOWSBASE.DLL
C:\PROGRAM FILES (X86)\MICROSOFT VISUAL STUDIO\2017\ENTERPRISE\MSBUILD\MICROSOFT\VISUALSTUDIO\V15.0\TEXTTEMPLATING\MICROSOFT.VISUALSTUDIO.TEXTTEMPLATING.SDK.HOST.15.0.DLL
C:\PROGRAM FILES (X86)\MICROSOFT VISUAL STUDIO\2017\ENTERPRISE\MSBUILD\MICROSOFT\VISUALSTUDIO\V15.0\TEXTTEMPLATING\MICROSOFT.VISUALSTUDIO.TEXTTEMPLATING.15.0.DLL
C:\PROGRAM FILES (X86)\MICROSOFT VISUAL STUDIO\2017\ENTERPRISE\MSBUILD\MICROSOFT\VISUALSTUDIO\V15.0\TEXTTEMPLATING\MICROSOFT.VISUALSTUDIO.TEXTTEMPLATING.INTERFACES.10.0.DLL
